//===========================================
// ItemID | Drop | Trade | Storage | Cart | SelltoNPC | Mail | Auction | Guild Storage
// This format does not accept blank lines. Be careful.
//===========================================
//= item_db_usable.yml
//===========================================
6046	1	1	1	1	1	1	1	1	// Clothing Dye Coupon
6047	1	1	1	1	1	1	1	1	// Clothing Dye Coupon II
11503	1	1	0	1	1	1	1	1	// WoE White Potion
11504	1	1	0	1	1	1	1	1	// WoE Blue Potion
11505	1	1	1	1	1	1	1	1	// Iris
11514	1	1	0	1	1	1	1	1	// Enriched Slim Pot
12142	0	1	1	1	1	1	1	1	// Book of Magic
12153	1	1	1	1	0	1	1	1	// Bowman Scroll 1
12154	1	1	1	1	0	1	1	1	// Bowman Scroll 2
12155	1	1	1	1	0	1	1	1	// Bowman Scroll 3
12156	1	1	1	1	0	1	1	1	// Bowman Scroll 4
12157	1	1	1	1	0	1	1	1	// Bowman Scroll 5
12158	1	1	1	1	0	1	1	1	// Bowman Scroll 6
12159	1	1	1	1	0	1	1	1	// Bowman Scroll 7
12160	1	1	1	1	0	1	1	1	// Bowman Scroll 8
12161	1	1	1	1	0	1	1	1	// Bowman Scroll 9
12162	1	1	1	1	0	1	1	1	// Bowman Scroll 10
12163	1	1	1	1	0	1	1	1	// Fencer Scroll 1
12164	1	1	1	1	0	1	1	1	// Fencer Scroll 2
12165	1	1	1	1	0	1	1	1	// Fencer Scroll 3
12166	1	1	1	1	0	1	1	1	// Fencer Scroll 4
12167	1	1	1	1	0	1	1	1	// Fencer Scroll 5
12168	1	1	1	1	0	1	1	1	// Fencer Scroll 6
12169	1	1	1	1	0	1	1	1	// Fencer Scroll 7
12170	1	1	1	1	0	1	1	1	// Fencer Scroll 8
12171	1	1	1	1	0	1	1	1	// Fencer Scroll 9
12172	1	1	1	1	0	1	1	1	// Fencer Scroll 10
12173	1	1	1	1	0	1	1	1	// Spearman Scroll 1
12174	1	1	1	1	0	1	1	1	// Spearman Scroll 2
12175	1	1	1	1	0	1	1	1	// Spearman Scroll 3
12176	1	1	1	1	0	1	1	1	// Spearman Scroll 4
12177	1	1	1	1	0	1	1	1	// Spearman Scroll 5
12178	1	1	1	1	0	1	1	1	// Spearman Scroll 6
12179	1	1	1	1	0	1	1	1	// Spearman Scroll 7
12180	1	1	1	1	0	1	1	1	// Spearman Scroll 8
12181	1	1	1	1	0	1	1	1	// Spearman Scroll 9
12182	1	1	1	1	0	1	1	1	// Spearman Scroll 10
12199	1	1	1	1	1	1	1	1	// Scroll of Magic
12202	1	1	0	1	1	1	1	1	// Steamed Tongue
12203	1	1	0	1	1	1	1	1	// Steamed Scorpion
12204	1	1	0	1	1	1	1	1	// Dragon Breath Cocktail
12205	1	1	0	1	1	1	1	1	// Hwergelmir's Tonic
12206	1	1	0	1	1	1	1	1	// Cooked Nine Tail's Tails
12207	1	1	0	1	1	1	1	1	// Stew Of Immortality
12208	1	1	0	1	1	1	1	1	// Battle Manual
12209	1	1	0	1	1	1	1	1	// Life Insurance
12210	1	1	0	1	1	1	1	1	// Bubble Gum
12211	1	1	0	1	1	1	1	1	// Kafra Card
12212	1	1	0	1	1	1	1	1	// Giant Fly Wing
12213	1	1	0	1	1	1	1	1	// Neuralizer
12214	1	1	0	1	1	1	1	1	// Convex Mirror
12215	1	1	0	1	1	1	1	1	// LV10 Blessing Scroll
12216	1	1	0	1	1	1	1	1	// LV10 Agil Scroll
12217	1	1	0	1	1	1	1	1	// LV5 Aspersio Scroll
12218	1	1	0	1	1	1	1	1	// LV5 Assumptio Scroll
12219	1	1	0	1	1	1	1	1	// LV10 Wind Walker Scroll
12220	1	1	0	1	1	1	1	1	// LV5 Adrenaline Scroll
12221	1	1	0	1	1	1	1	1	// Megaphone
12258	1	1	1	1	0	1	1	1	// Bomb Poring Box
12259	1	1	1	1	1	1	1	1	// Miracle Tonic
12261	1	1	1	1	1	1	1	1	// Leap of Fantasy
12262	1	1	1	1	1	1	1	1	// Authoritative Badge
12263	1	1	0	1	1	1	1	1	// Field Manual
12264	1	1	0	1	1	1	1	1	// Bubble Gum
12265	1	1	0	1	1	1	1	1	// Life Insurrance
12266	1	1	1	1	1	1	1	1	// Sesame Pastry
12267	1	1	1	1	1	1	1	1	// Honey Pastry
12268	1	1	1	1	1	1	1	1	// Rainbow Cake
12269	1	1	1	1	0	1	1	1	// Tasty Pink Ration
12270	1	1	1	1	0	1	1	1	// Tasty White Ration
12271	1	1	1	1	0	1	1	1	// Military Ration A
12272	1	1	1	1	0	1	1	1	// Military Ration B
12273	1	1	1	1	0	1	1	1	// Military Ration C
12274	1	1	1	1	1	1	1	1	// Daehwandan
12275	1	1	1	1	1	1	1	1	// Taecheongdan
12276	1	0	0	0	1	0	0	1	// Mimic Scroll
12277	1	0	0	0	1	0	0	1	// Disguise Scroll
12278	1	0	0	0	1	0	0	1	// Alice Scroll
12287	1	1	1	1	1	1	1	1	// Love Angel Magic Powder
12288	1	1	1	1	1	1	1	1	// Squirrel Magic Powder
12289	1	1	1	1	1	1	1	1	// Gogo Magic Powder
12294	1	1	1	1	1	1	1	1	// PC-Room Coin Box
12295	1	1	1	1	1	1	1	1	// PC-Room Coin Box
12296	1	1	1	1	1	1	1	1	// PC-Room Coin Box
12297	1	1	1	1	1	1	1	1	// PC-Room Coin Box
12298	1	1	1	1	1	1	1	1	// SP Consumption Reduction Potion
12299	1	1	1	1	1	1	1	1	// Mega Resist Potion
12300	1	1	1	1	0	1	1	1	// Wild Rose Contract
12301	1	1	1	1	0	1	1	1	// Doppelganger Contract
12302	1	1	1	1	0	1	1	1	// Egnigem Cenia Contract
12303	1	1	0	1	1	1	1	1	// Blessing Of Water
12304	1	1	1	1	1	1	1	1	// Diary Magic Powder
12305	1	1	1	1	1	1	1	1	// Mini Heart Magic Powder
12306	1	1	1	1	1	1	1	1	// Freshman Magic Powder
12307	1	1	1	1	1	1	1	1	// Kid Magic Powder
12308	1	1	1	1	1	1	1	1	// Magic Magic Powder
12309	1	1	1	1	1	1	1	1	// JJangu Magic Powder
12310	1	1	0	1	0	1	1	1	// Spray Of Flowers
12311	1	1	0	1	0	1	1	1	// Huge Spray Of Flowers
12313	1	1	1	1	0	1	1	1	// Guardian Angel
12323	1	1	1	1	1	1	1	1	// Novice Fly Wing
12324	1	1	1	1	1	1	1	1	// Novice Butterfly Wing
12325	1	1	1	1	1	1	1	1	// Novice Magnifier
12331	1	1	1	1	1	1	1	1	// Ginseng
12332	1	1	1	1	1	1	1	1	// Fruit Juice
12333	1	1	1	1	1	1	1	1	// Ancilla
12340	1	1	1	1	0	1	1	1	// Chewy Rice Powder
12342	1	1	0	1	1	1	1	1	// Manuk's Opportunity
12343	1	1	0	1	1	1	1	1	// Manuk's Courage
12344	1	1	0	1	1	1	1	1	// Pinguicula's Fruit Jam
12345	1	1	0	1	1	1	1	1	// Luciola's Honey Jam
12346	1	1	1	1	0	1	1	1	// Unripe Acorn
12348	1	1	0	1	1	1	1	1	// Manuk's Faith
12349	1	1	0	1	1	1	1	1	// Cornus' Tears
12350	1	0	0	0	1	1	1	1	// Angeling Potion
12351	1	0	0	0	1	1	1	1	// Scream Megaphone
12361	1	1	1	1	1	1	1	1	// Delicious Shaved Ice
12363	1	1	1	1	1	1	1	1	// Fit Pipe
12370	1	1	1	1	1	1	1	1	// Girl's Naivety
12375	1	0	0	0	1	1	1	1	// Akaraje
12384	1	1	1	1	0	1	1	1	// Rainbow Ruby
12385	1	1	1	1	0	1	1	1	// Rainbow Ruby
12386	1	1	1	1	0	1	1	1	// Rainbow Ruby
12387	1	1	1	1	0	1	1	1	// Rainbow Ruby
12388	1	1	1	1	1	1	1	1	// Rhydo Runestone For Apprentice
12389	1	1	1	1	1	1	1	1	// Pertz Runestone For Apprentice
12390	1	1	1	1	1	1	1	1	// Verkana Runestone For Apprentice
12391	1	1	0	1	1	1	1	1	// Lucky Egg
12396	1	0	0	0	1	0	0	1	// Gift Box?
12397	1	0	0	0	1	0	0	1	// Gift Box?
12398	1	1	1	1	1	1	1	1	// PCBang Gift Box
12402	1	1	0	1	1	1	1	1	// 29Fruit
12404	1	1	0	1	1	1	1	1	// Acti Potion
12405	1	1	0	1	1	1	1	1	// Underripe Yggseed
12406	1	1	0	1	1	1	1	1	// Psychic ArmorS
12413	1	1	0	1	1	1	1	1	// PCBang Coupon Box2
12473	1	1	0	1	0	1	1	1	// RWC Parti Box
12474	1	1	0	1	0	1	1	1	// RWC Final Comp Box
12476	1	1	0	1	1	1	1	1	// PCBang Coupon Box3
12478	1	1	1	1	1	1	1	1	// Chance Box
12479	1	1	1	1	1	1	1	1	// Caracas Ring Box
12480	1	1	0	1	1	1	1	1	// Attend 3Day Box
12481	1	1	0	1	1	1	1	1	// Attend 7Day Box
12482	1	1	0	1	1	1	1	1	// Attend 10Day Box
12483	1	1	0	1	1	1	1	1	// Attend 15Day Box
12484	1	1	0	1	1	1	1	1	// Attend 20Day Box
12485	1	1	0	1	1	1	1	1	// Attend 25Day Box
12486	1	1	0	1	1	1	1	1	// GoldPC First Box
12487	1	1	0	1	1	1	1	1	// PC 4Leaf Clover Box
12492	1	1	0	1	1	1	1	1	// Crumpled Paper
12493	1	1	0	1	1	1	1	1	// Lucky Egg C4
12529	1	1	0	1	1	1	1	1	// White Slim Potion Box
12530	1	1	0	1	1	1	1	1	// Mastela Fruit Box
12531	1	1	0	1	1	1	1	1	// White Potion Box
12532	1	1	0	1	1	1	1	1	// Royal Jelly Box2
12533	1	1	0	1	1	1	1	1	// Blue Herb Box2
12534	1	1	0	1	1	1	1	1	// Yggdrasil Seed Box
12535	1	1	0	1	1	1	1	1	// Iggdrasilberry Box
12540	1	1	1	1	0	1	1	1	// GM Warp Box
12541	1	1	1	1	0	1	1	1	// Fortune Cookie1
12542	1	1	1	1	0	1	1	1	// Fortune Cookie2
12543	1	1	1	1	0	1	1	1	// Fortune Cookie3
12549	1	1	0	1	1	1	1	1	// White Slim Pot Box2
12550	1	1	0	1	1	1	1	1	// Poison Bottle Box2
12704	1	1	0	1	1	1	1	1	// Elixir of Life
12705	1	1	0	1	1	1	1	1	// Noble Nameplate
12714	1	1	0	1	0	1	1	1	// Easter Scroll
12715	1	1	1	1	1	1	1	1	// Black Treasure Box
12725	1	1	0	1	1	1	1	1	// Nauthiz Rune
12726	1	1	0	1	1	1	1	1	// Raido Rune
12727	1	1	0	1	1	1	1	1	// Berkana Rune
12728	1	1	0	1	1	1	1	1	// Isa Rune
12729	1	1	0	1	1	1	1	1	// Othila Rune
12730	1	1	0	1	1	1	1	1	// Uruz Rune
12731	1	1	0	1	1	1	1	1	// Thurisaz Rune
12732	1	1	0	1	1	1	1	1	// Wyrd Rune
12733	1	1	0	1	1	1	1	1	// Hagalaz Rune
12740	1	0	0	0	1	0	0	1	// Amplification Scroll
12741	1	0	0	0	1	0	0	1	// Intellect Amplification Scroll
12745	1	1	1	1	1	1	1	1	// Skull Scroll
12746	1	1	1	1	0	1	1	1	// Destruction Scroll
12754	1	1	1	1	0	1	1	1	// Chinese Pastel
12755	1	1	1	1	0	1	1	1	// Chinese Fireworks
12756	1	1	1	1	0	1	1	1	// Chinese New Year Envelope
12766	1	1	1	1	1	1	1	1	// Reward Job BM25
12767	1	1	0	1	0	1	1	1	// Passion FB Hat Box
12768	1	1	0	1	0	1	1	1	// Cool FB Hat Box
12769	1	1	0	1	0	1	1	1	// Victory FB Hat Box
12770	1	1	0	1	0	1	1	1	// Glory FB Hat Box
12771	1	1	0	1	0	1	1	1	// Passion Hat Box2
12772	1	1	0	1	0	1	1	1	// Cool Hat Box2
12773	1	1	0	1	0	1	1	1	// Victory Hat Box2
12900	1	0	0	0	1	1	1	1	// Battle Manual Box
12901	1	0	0	0	1	1	1	1	// Insurance Package
12902	1	0	0	0	1	1	1	1	// Bubble Gum Box
12903	1	0	0	0	1	1	1	1	// Steamed Tongue Box
12904	1	0	0	0	1	1	1	1	// Steamed Scorpion Box
12905	1	0	0	0	1	1	1	1	// Dragon Breath Cocktail Box
12906	1	0	0	0	1	1	1	1	// Hwergelmir's Tonic Box
12907	1	0	0	0	1	1	1	1	// Nine Tail Dish Box
12908	1	0	0	0	1	1	1	1	// Stew Of Immortality Box
12909	1	0	0	0	1	1	1	1	// Kafra Card Box
12910	1	0	0	0	1	1	1	1	// Giant Fly Wing Box
12911	1	0	0	0	1	1	1	1	// Neuralizer Box
12912	1	0	0	0	1	1	1	1	// Convex Mirror Box
12913	1	0	0	0	1	1	1	1	// Blessing 10 Scroll Box
12914	1	0	0	0	1	1	1	1	// Increase AGI 10 scroll Box
12915	1	0	0	0	1	1	1	1	// Aspersio 5 Scroll Box
12916	1	0	0	0	1	1	1	1	// Assumptio 5 Scroll Box
12917	1	0	0	0	1	1	1	1	// Wind Walk 10 Scroll Box
12918	1	0	0	0	1	1	1	1	// Adrenaline 5 Scroll Box
12919	1	0	0	0	1	1	1	1	// Megaphone Box
12920	1	0	0	0	1	1	1	1	// Enriched Elunium Box
12921	1	0	0	0	1	1	1	1	// Enriched Oridecon Box
12922	1	0	0	0	1	1	1	1	// Token of Siegfried Box
12923	1	0	0	0	1	1	1	1	// December Lucky Box
12924	1	0	0	0	1	1	1	1	// Pet Egg Box 2
12925	1	1	0	1	1	1	1	1	// Kafra Item Mall Prize Package
12926	1	1	0	1	1	1	1	1	// December Lucky Box
12928	1	1	0	1	1	1	1	1	// Sacred Scroll
12929	1	0	0	0	1	1	1	1	// Pet Egg Box 3
12930	1	0	0	0	1	1	1	1	// Pet Egg Box 4
12931	1	0	0	0	1	1	1	1	// Pet Egg Box 5
12932	1	1	0	1	1	1	1	1	// Episode 13.2 Key Package
12933	1	1	0	1	1	1	1	1	// Summer Hat Pack
12934	1	1	0	1	1	1	1	1	// Pet Egg Scroll5
12935	1	0	0	1	1	1	1	1	// Infiltrator Box
12936	1	0	0	1	1	1	1	1	// Muramasa Box
12937	1	0	0	1	1	1	1	1	// Excalibur Box
12938	1	0	0	1	1	1	1	1	// Combat Knife Box
12939	1	0	0	1	1	1	1	1	// Dagger of Counter Box
12940	1	0	0	1	1	1	1	1	// Kaiser Knuckle Box
12941	1	0	0	1	1	1	1	1	// Poll Axe Box
12942	1	0	0	1	1	1	1	1	// Mighty Staff Box
12943	1	0	0	1	1	1	1	1	// Light Epsilon Box
12944	1	0	0	1	1	1	1	1	// Ballista Box
12945	1	0	0	1	1	1	1	1	// Sage's Diary Box
12946	1	0	0	1	1	1	1	1	// Asura Box
12947	1	0	0	1	1	1	1	1	// Apple of Archer Box
12948	1	0	0	1	1	1	1	1	// Bunny Band Box
12949	1	0	0	1	1	1	1	1	// Sakkat Box
12950	1	0	0	1	1	1	1	1	// Grand Circlet Box
12951	1	0	0	1	1	1	1	1	// Elven Ears Box
12952	1	0	0	1	1	1	1	1	// Steel Flower Box
12953	1	0	0	1	1	1	1	1	// Critical Ring Box
12954	1	0	0	1	1	1	1	1	// Earring Box
12955	1	0	0	1	1	1	1	1	// Ring Box
12956	1	0	0	1	1	1	1	1	// Necklace Box
12957	1	0	0	1	1	1	1	1	// Glove Box
12958	1	0	0	1	1	1	1	1	// Brooch Box
12959	1	0	0	1	1	1	1	1	// Rosary Box
12960	1	0	0	1	1	1	1	1	// Safety Ring Box
12961	1	0	0	1	1	1	1	1	// Vesper Core 01 Box
12962	1	0	0	1	1	1	1	1	// Vesper Core 02 Box
12963	1	0	0	1	1	1	1	1	// Vesper Core 03 Box
12964	1	0	0	1	1	1	1	1	// Vesper Core 04 Box
12983	1	0	0	0	1	1	1	1	// Pet Egg Scroll Box 6
12984	1	0	0	0	1	1	1	1	// Pet Egg Scroll Box 7
12985	1	0	0	0	1	1	1	1	// Pet Egg Scroll Box 8
12986	1	0	0	0	1	1	1	1	// Adventurer Pack Box
12987	1	0	0	0	1	1	1	1	// Pet Egg Scroll Box 10
12988	1	0	0	0	1	1	1	1	// Pet Egg Scroll Box 11
12989	1	1	0	1	1	1	1	1	// Pet Egg Scroll 6
12990	1	1	0	1	1	1	1	1	// Pet Egg Scroll 7
12991	1	1	0	1	1	1	1	1	// Party Hard Pack
12992	1	1	0	1	1	1	1	1	// Adventurer Pack
12993	1	1	0	1	1	1	1	1	// Pet Egg Scroll 10
12994	1	1	0	1	1	1	1	1	// Pet Egg Scroll 11
13525	1	0	0	0	1	0	0	1	// Zeny Pet Egg Scroll Box
13547	1	0	0	0	1	0	0	1	// Repair Weapon Scroll Box
13553	1	0	0	0	1	0	0	1	// Dungeon Teleport Scroll 5 Box
13689	1	1	0	1	1	1	1	1	// Bok Choy Box
13690	1	1	0	1	1	1	1	1	// Green Maiden Cake Box
13696	1	0	0	0	1	1	1	1	// Field Manual 100% Box
13704	1	0	0	0	1	0	0	1	// Super Pet Egg 5
13705	1	0	0	0	1	0	0	1	// Super Pet Egg 6
13706	1	0	0	0	1	0	0	1	// Super Pet Egg 7
13707	1	0	0	0	1	0	0	1	// Super Pet Egg 8
13710	1	0	0	0	1	0	0	1	// Gym Pass Box
13711	1	0	0	0	1	0	0	1	// Small Life Potion 10 Box
13712	1	0	0	0	1	0	0	1	// Small Life Potion 30 Box
13713	1	0	0	0	1	0	0	1	// Small Life Potion 50 Box
13714	1	0	0	0	1	0	0	1	// Medium Life Potion 10 Box
13715	1	0	0	0	1	0	0	1	// Medium Life Potion 30 Box
13716	1	0	0	0	1	0	0	1	// Medium Life Potion 50 Box
13717	1	0	0	0	1	0	0	1	// Abrasive 5 Box
13718	1	0	0	0	1	0	0	1	// Abrasive 10 Box
13719	1	0	0	0	1	0	0	1	// Regeneration Potion 5 Box
13720	1	0	0	0	1	0	0	1	// Regeneration 10 Box
13721	1	0	0	0	1	0	0	1	// Dungeon Teleport Scroll 10 Box
13738	1	0	0	0	1	0	0	1	// Glass of Illusion 5 Box
13739	1	0	0	0	1	0	0	1	// Glass of Illusion 10 Box
13740	1	0	0	0	1	0	0	1	// Shadow Armor Scroll 5 Box
13741	1	0	0	0	1	0	0	1	// Shadow Armor Scroll 10 Box
13742	1	0	0	0	1	0	0	1	// Shadow Armor Scroll 30 Box
13743	1	0	0	0	1	0	0	1	// Holy Armor Scroll 5 Box
13744	1	0	0	0	1	0	0	1	// Holy Armor Scroll 10 Box
13745	1	0	0	0	1	0	0	1	// Holy Armor Scroll 30 Box
13746	1	0	0	0	1	0	0	1	// Small Defense Potion 10 Box
13747	1	0	0	0	1	0	0	1	// Small Defense Potion 30 Box
13748	1	0	0	0	1	0	0	1	// Small Defense Potion 50 Box
13749	1	0	0	0	1	0	0	1	// Big Defense Potion 10 Box
13750	1	0	0	0	1	0	0	1	// Big Defense Potion 30 Box
13751	1	0	0	0	1	0	0	1	// Big Defense Potion 50 Box
13752	1	0	0	0	1	0	0	1	// Small Magic Defense Potion 10 Box
13753	1	0	0	0	1	0	0	1	// Small Magic Defense Potion 30 Box
13754	1	0	0	0	1	0	0	1	// Small Magic Defense Potion 50 Box
13755	1	0	0	0	1	0	0	1	// Big Magic Defense Potion 10 Box
13756	1	0	0	0	1	0	0	1	// Big Magic Defense Potion 30 Box
13757	1	0	0	0	1	0	0	1	// Big Magic Defense Potion 50 Box
13765	1	1	1	1	1	1	1	1	// Certificate Box
13815	1	0	0	0	1	0	0	1	// Knife Goblin Taming Box
13816	1	0	0	0	1	0	0	1	// Flail Goblin Taming Box
13817	1	0	0	0	1	0	0	1	// Hammer Goblin Taming Box
13818	1	0	0	0	1	0	0	1	// Red Deleter Taming Box
13819	1	0	0	0	1	0	0	1	// Diabolic Taming Box
13820	1	0	0	0	1	0	0	1	// Wanderer Taming Box
13821	1	0	0	0	1	0	0	1	// Green Apple Box
13822	1	0	0	0	1	0	0	1	// Barbeque Box
13823	1	0	0	0	1	0	0	1	// Meat Skewer Box
13824	1	0	0	0	1	0	0	1	// Spirit Liquor Box
13859	1	1	1	1	0	1	1	1	// Directive Envelope A
13860	1	1	1	1	0	1	1	1	// Directive Envelope B
13863	1	1	0	1	1	1	1	1	// Repair Weapon Scroll 10 Box
13866	1	1	0	1	1	1	1	1	// Flying Angel Box
13867	1	1	0	1	1	1	1	1	// Neko Mimi Box
13868	1	1	0	1	1	1	1	1	// Moonlight Flower Hat Box
13869	1	1	0	1	1	1	1	1	// Baby Chick Hat Box
13870	1	1	0	1	1	1	1	1	// Beauty Gift Certificate Box
13871	1	1	0	1	1	1	1	1	// Mage Card Box
13872	1	1	0	1	1	1	1	1	// Acolyte Card Box
13873	1	1	0	1	1	1	1	1	// Archer Card Box
13874	1	1	0	1	1	1	1	1	// Swordman Card Box
13875	1	1	0	1	1	1	1	1	// Thief Card Box
13876	1	1	0	1	1	1	1	1	// Merchant Card Box
13877	1	1	0	1	1	1	1	1	// Clock Tower Card Box
13878	1	1	0	1	1	1	1	1	// Geffenia Card Box
13879	1	1	0	1	1	1	1	1	// Owl Card Box
13880	1	1	0	1	1	1	1	1	// Ghost Card Box
13881	1	1	0	1	1	1	1	1	// Nightmare Card Box
13882	1	1	0	1	1	1	1	1	// Curse Card Box
13883	1	1	0	1	1	1	1	1	// Sleep Card Box
13884	1	1	0	1	1	1	1	1	// Freeze Card Box
13885	1	1	0	1	1	1	1	1	// Stun Card Box
13886	1	1	0	1	1	1	1	1	// Silence Card Box
13887	1	1	0	1	1	1	1	1	// Blind Card Box
13888	1	1	0	1	1	1	1	1	// Chaos Card Box
13889	1	1	0	1	1	1	1	1	// Elunium Box
13890	1	1	0	1	1	1	1	1	// Oridecon Box
13891	1	1	0	1	1	1	1	1	// Fire Converter Box
13892	1	1	0	1	1	1	1	1	// Water Converter Box
13893	1	1	0	1	1	1	1	1	// Wind Converter Box
13894	1	1	0	1	1	1	1	1	// Earth Converter Box
13895	1	1	0	1	1	1	1	1	// Starter Pack
13896	1	0	0	0	1	0	0	1	// Mimic Summoning 5 Box
13897	1	0	0	0	1	0	0	1	// Disguise Summoning 5 Box
13898	1	0	0	0	1	0	0	1	// Alice Summoning 5 Box
13899	1	0	0	0	1	0	0	1	// Mimic Summoning 10 Box
13900	1	0	0	0	1	0	0	1	// Disguise Summoning 10 Box
13901	1	0	0	0	1	0	0	1	// Alice Summoning 10 Box
13902	1	1	0	1	1	1	1	1	// Fish Head Hat Box
13903	1	1	0	1	1	1	1	1	// Santa Poring Box
13904	1	1	0	1	1	1	1	1	// Bell Ribbon Box
13905	1	1	0	1	1	1	1	1	// XM Hardcore Set Box
13906	1	1	0	1	1	1	1	1	// XM Kitty Set Box
13907	1	1	0	1	1	1	1	1	// XM Softcore Set Box
13908	1	1	0	1	1	1	1	1	// XM Deviruchi Set Box
13909	1	1	0	1	1	1	1	1	// MVP Hunting Box
13910	1	1	0	1	1	1	1	1	// XM Brewing Set Box
13911	1	1	0	1	1	1	1	1	// Christmas Pet Scroll
13912	1	0	0	0	1	0	0	1	// Party Blessing 10 Scroll Box
13913	1	0	0	0	1	0	0	1	// Party Increase Agi 10 Scroll Box
13914	1	0	0	0	1	0	0	1	// Party Assumptio 5 Scroll Box
13915	1	1	0	1	1	1	1	1	// Love Angel Magic Powder Box
13916	1	1	0	1	1	1	1	1	// Squirrel Magic Powder Box
13917	1	1	0	1	1	1	1	1	// Gogo Magic Powder Box
13926	1	1	0	1	1	1	1	1	// Crusader Card Box
13927	1	1	0	1	1	1	1	1	// Alchemist Card Box
13928	1	1	0	1	1	1	1	1	// Rogue Card Box
13929	1	1	0	1	1	1	1	1	// Bard Dancer Card Box
13930	1	1	0	1	1	1	1	1	// Sage card box
13931	1	1	0	1	1	1	1	1	// Monk Card Box
13932	1	1	0	1	1	1	1	1	// Sylph Box
13933	1	1	0	1	1	1	1	1	// Undine Box
13934	1	1	0	1	1	1	1	1	// Salamander Box
13935	1	1	0	1	1	1	1	1	// Soul Box
13936	1	1	0	1	1	1	1	1	// Gnome Box
13937	1	1	0	1	1	1	1	1	// Robo Eye Box
13938	1	1	0	1	1	1	1	1	// Maiden's Twin Ribbon Box
13940	1	1	0	1	1	1	1	1	// WoE Teleport Scroll 100 Box
13941	1	1	0	1	1	1	1	1	// Taiwan Valentine Scroll
13942	1	1	0	1	1	1	1	1	// Love Angel Magic Powder Box 30 Days
13943	1	1	0	1	1	1	1	1	// Squirrel Magic Powder Box 30 Days
13944	1	1	0	1	1	1	1	1	// Gogo Magic Powder Box 30 Days
13945	1	1	0	1	1	1	1	1	// Brazil Swordsman Package
13946	1	1	0	1	1	1	1	1	// Brazil Magician Package
13947	1	1	0	1	1	1	1	1	// Brazil Acolyte Package
13948	1	1	0	1	1	1	1	1	// Brazil Archer package
13949	1	1	0	1	1	1	1	1	// Brazil Merchant Package
13950	1	1	0	1	1	1	1	1	// Brazil Thief Package
13951	1	1	0	1	1	1	1	1	// Western Outlaw Box
13952	1	1	0	1	1	1	1	1	// Lever Action Rifle Box
13953	1	1	0	1	1	1	1	1	// All In One Ring Box
13954	1	1	0	1	1	1	1	1	// Spiritual Tunic Box
13955	1	1	0	1	1	1	1	1	// Recuvative Armor Box
13956	1	1	0	1	1	1	1	1	// Shell Of Resistance Box
13957	1	1	0	1	1	1	1	1	// Silf Manteau Box
13958	1	1	0	1	1	1	1	1	// Refresh Shoes Box
13959	1	1	0	1	1	1	1	1	// Crunch Toast Box
13960	1	1	0	1	1	1	1	1	// Identification Box
13961	1	1	0	1	1	1	1	1	// Mochi Box
13962	1	1	0	1	1	1	1	1	// Defolty Doll Hat Box
13963	1	1	0	1	1	1	1	1	// Glaris Doll Hat Box
13964	1	1	0	1	1	1	1	1	// Sorin Doll Hat Box
13965	1	1	0	1	1	1	1	1	// Tailring Doll Hat Box
13966	1	1	0	1	1	1	1	1	// Vinit Doll Hat Box
13967	1	1	0	1	1	1	1	1	// W Doll Hat Box
13970	1	1	0	1	1	1	1	1	// Iron Box
13971	1	1	0	1	1	1	1	1	// Steel Box
13972	1	1	0	1	1	1	1	1	// Coal Box
13973	1	1	0	1	1	1	1	1	// Poison Bottle Box
13974	1	1	0	1	1	1	1	1	// Fisherman Scroll
13975	1	1	0	1	1	1	1	1	// Diary Magic Powder Box
13976	1	1	0	1	1	1	1	1	// Mini Heart Magic Powder Box
13977	1	1	0	1	1	1	1	1	// Freshman Magic Powder Box
13978	1	1	0	1	1	1	1	1	// Kid Magic Powder Box
13979	1	1	0	1	1	1	1	1	// Magic Magic Powder Box
13980	1	1	0	1	1	1	1	1	// JJangu Magic Powder Box
13981	1	1	0	1	1	1	1	1	// Diary Magic Powder Box 30 Days
13982	1	1	0	1	1	1	1	1	// Mini Heart Magic Powder Box 30 Days
13983	1	1	0	1	1	1	1	1	// Freshman Magic Powder Box 30 Days
13984	1	1	0	1	1	1	1	1	// Kid Magic Powder Box 30 Days
13985	1	1	0	1	1	1	1	1	// Magic Magic Powder Box 30 Days
13986	1	1	0	1	1	1	1	1	// JJangu Magic Powder Box 30 Days
13987	1	1	0	1	1	1	1	1	// Rough Oridecon 5 Box
13988	1	1	0	1	1	1	1	1	// Rough Oridecon 50 Box
13989	1	1	0	1	1	1	1	1	// Acid Bomb 10 Box
13990	1	1	0	1	1	1	1	1	// JOB Battle Manual Box
13991	1	1	0	1	1	1	1	1	// Tiger Mask Box
13992	1	1	0	1	1	1	1	1	// Pussy Cat Bell Box
13993	1	1	0	1	1	1	1	1	// Alice Hat Box
13994	1	1	0	1	1	1	1	1	// Speed Potion 5 Box
13995	1	1	0	1	1	1	1	1	// Speed Potion 10 Box
13996	1	1	0	1	1	1	1	1	// Big Bun 100 Box
13997	1	1	0	1	1	1	1	1	// Big Bun 500 Box
13998	1	1	0	1	1	1	1	1	// Giant Fly Wing 500 Box
13999	1	1	0	1	1	1	1	1	// Pill 100 Box
14000	1	1	0	1	1	1	1	1	// Pill 500 Box
14001	1	1	0	1	1	1	1	1	// Recruit Siege Supply Box
14002	1	1	0	1	1	1	1	1	// Veteran Siege Supply Box
14003	1	1	0	1	1	1	1	1	// Elite Siege Supply Box
14004	1	1	0	1	1	1	1	1	// Poison Bottle 10 Box
14005	1	1	0	1	1	1	1	1	// Poison Bottle 5 Box
14006	1	1	0	1	1	1	1	1	// Evolved Drooping Cat Box
14007	1	1	0	1	1	1	1	1	// Evolved Rabbits Headband Box
14008	1	1	0	1	1	1	1	1	// Evolved Helmet Of Orc Hero Box
14009	1	1	0	1	1	1	1	1	// Love Angel Magic Powder Box
14010	1	1	0	1	1	1	1	1	// Squillroll Magic Powder Box
14011	1	1	0	1	1	1	1	1	// Gogo Magic Powder Box
14012	1	1	0	1	1	1	1	1	// Love Angel Magic Powder Box 30 Days
14013	1	1	0	1	1	1	1	1	// Squillroll Magic Powder Box 30 Days
14014	1	1	0	1	1	1	1	1	// Gogo Magic Powder Box 30 Days
14015	1	1	0	1	1	1	1	1	// Western Outlaw Box
14016	1	1	0	1	1	1	1	1	// Lever Action Rifle Box
14017	1	1	0	1	1	1	1	1	// All In One Ring Box
14018	1	1	0	1	1	1	1	1	// Spiritual Tunic Box
14019	1	1	0	1	1	1	1	1	// Recuvative Armor Box
14020	1	1	0	1	1	1	1	1	// Shell Of Resistance Box
14021	1	1	0	1	1	1	1	1	// Silf Manteau Box
14022	1	1	0	1	1	1	1	1	// Refresh Shoes Box
14023	1	1	0	1	1	1	1	1	// Crunch Toast Box
14024	1	1	0	1	1	1	1	1	// Robo Eye Box
14025	1	1	0	1	1	1	1	1	// Maiden's Twin Ribbon Box
14027	1	1	0	1	1	1	1	1	// Fish Head Hat Box
14028	1	1	0	1	1	1	1	1	// SantaPoring Cap Box
14029	1	1	0	1	1	1	1	1	// Bell Ribbon Box
14030	1	1	0	1	1	1	1	1	// Mimic Summoning 5 Box
14031	1	1	0	1	1	1	1	1	// Disguise Summoning 5 Box
14032	1	1	0	1	1	1	1	1	// Alice Summoning 5 Box
14033	1	1	0	1	1	1	1	1	// Mimic Summoning 10 Box
14034	1	1	0	1	1	1	1	1	// Disguise Summoning 10 Box
14035	1	1	0	1	1	1	1	1	// Alice Summoning 10 Box
14036	1	1	0	1	1	1	1	1	// New Style Box
14037	1	1	0	1	1	1	1	1	// Repair Weapon Scroll Box
14038	1	1	0	1	1	1	1	1	// Repair Weapon Scroll 10 Box
14041	1	1	0	1	1	1	1	1	// Yellow Butterfly Wing 5 Box
14042	1	1	0	1	1	1	1	1	// Yellow Butterfly Wing Box
14043	1	1	0	1	1	1	1	1	// Green Butterfly Wing 5 Box
14044	1	1	0	1	1	1	1	1	// Green Butterfly Wing Box
14045	1	1	0	1	1	1	1	1	// Red Butterfly Wing 5 Box
14046	1	1	0	1	1	1	1	1	// Red Butterfly Wing Box
14047	1	1	0	1	1	1	1	1	// Blue Butterfly Wing 5 Box
14048	1	1	0	1	1	1	1	1	// Blue Butterfly Wing Box
14049	1	1	0	1	1	1	1	1	// Candy 5 Box
14050	1	1	0	1	1	1	1	1	// Candy 10 Box
14051	1	1	0	1	1	1	1	1	// Dungeon Teleport Scroll II 5 Box
14052	1	1	0	1	1	1	1	1	// Dungeon Teleport Scroll II 10 Box
14053	1	1	0	1	1	1	1	1	// Little Angel Doll Box
14054	1	1	0	1	1	1	1	1	// Poring 3 Hats Box
14055	1	1	0	1	1	1	1	1	// Refined Nagan Box
14056	1	1	0	1	1	1	1	1	// Refined Brocca Box
14057	1	1	0	1	1	1	1	1	// Refined Survivor's Rod Box
14058	1	1	0	1	1	1	1	1	// Refined Quadrille Box
14059	1	1	0	1	1	1	1	1	// Refined Great Axe Box
14060	1	1	0	1	1	1	1	1	// Refined Bloody Roar Box
14061	1	1	0	1	1	1	1	1	// Refined Hardcover Book Box
14062	1	1	0	1	1	1	1	1	// Refined Fireblend Box
14063	1	1	0	1	1	1	1	1	// Refined Immaterial Sword Box
14064	1	1	0	1	1	1	1	1	// Refined Unholy Touch Box
14065	1	1	0	1	1	1	1	1	// Refined Survivor's Manteau Box
14066	1	1	0	1	1	1	1	1	// Refined Masquerade Box
14067	1	1	0	1	1	1	1	1	// Refined Helmet of Orc Hero Box
14068	1	1	0	1	1	1	1	1	// Refined Wing of Diablo Box
14069	1	1	0	1	1	1	1	1	// Refined Dark Blinder Box
14070	1	1	0	1	1	1	1	1	// Refined Drooping Cat Box
14071	1	1	0	1	1	1	1	1	// Refined Corsair Box
14072	1	1	0	1	1	1	1	1	// Refined Bloodied Shackle Ball Box
14073	1	1	0	1	1	1	1	1	// Refined Spiritual Ring Box
14074	1	1	0	1	1	1	1	1	// Wine Glass of Illusion 5 Box
14075	1	1	0	1	1	1	1	1	// Glass Of Illusion 10 Box
14076	1	1	0	1	1	1	1	1	// Scroll of Shadow Armor 5 Box
14077	1	1	0	1	1	1	1	1	// Scroll of Shadow Armor 10 Box
14078	1	1	0	1	1	1	1	1	// Scroll of Shadow Armor 30 Box
14079	1	1	0	1	1	1	1	1	// Scroll of Holy Armor 5 Box
14080	1	1	0	1	1	1	1	1	// Scroll of Holy Armor 10 Box
14081	1	1	0	1	1	1	1	1	// Scroll of Holy Armor 30 Box
14082	1	1	0	1	1	1	1	1	// Small Defense Potion 10 Box
14083	1	1	0	1	1	1	1	1	// Small Physical Defense Potion 30 Box
14084	1	1	0	1	1	1	1	1	// Small Physical Defense Potion 50 Box
14085	1	1	0	1	1	1	1	1	// Big Defense Potion 10 Box
14086	1	1	0	1	1	1	1	1	// Large Physical Defense Potion 30 Box
14087	1	1	0	1	1	1	1	1	// Large Physical Defense Potion 50 Box
14088	1	1	0	1	1	1	1	1	// Small Magic Defense Potion 10 Box
14089	1	1	0	1	1	1	1	1	// Small Magical Defense Potion 30 Box
14090	1	1	0	1	1	1	1	1	// Small Magical Defense Potion 50 Box
14091	1	1	0	1	1	1	1	1	// Big Magic Defense Potion 10 Box
14092	1	1	0	1	1	1	1	1	// Large Magical Defense Potion 30 Box
14093	1	1	0	1	1	1	1	1	// Large Magical Defense Potion 50 Box
14094	1	1	0	1	1	1	1	1	// Flying Angel Box
14095	1	1	0	1	1	1	1	1	// Neko Mimi Box
14096	1	1	0	1	1	1	1	1	// Moonlight Flower Hat Box
14097	1	1	0	1	1	1	1	1	// Baby Chick Hat Box
14098	1	1	0	1	1	1	1	1	// Peco Peco Hairband Box
14099	1	1	0	1	1	1	1	1	// Red Glasses Box
14100	1	1	0	1	1	1	1	1	// Whisper Mask Box
14101	1	1	0	1	1	1	1	1	// Ramen Hat Box
14102	1	1	0	1	1	1	1	1	// Dungeon Teleport Scroll 5 Box
14103	1	1	0	1	1	1	1	1	// Gym Membership Card Box
14104	1	1	0	1	1	1	1	1	// Small Life Potion 10 Box
14105	1	1	0	1	1	1	1	1	// Small Life Potion 30 Box
14106	1	1	0	1	1	1	1	1	// Small Life Potion 50 Box
14107	1	1	0	1	1	1	1	1	// Medium Life Potion 10 Box
14108	1	1	0	1	1	1	1	1	// Large Life Potion 30 Box
14109	1	1	0	1	1	1	1	1	// Large Life Potion 50 Box
14110	1	1	0	1	1	1	1	1	// Abrasive 5 Box
14111	1	1	0	1	1	1	1	1	// Abrasive 10 Box
14112	1	1	0	1	1	1	1	1	// Regeneration Potion 5 Box
14113	1	1	0	1	1	1	1	1	// Regeneration Potion 10 Box
14114	1	1	0	1	1	1	1	1	// Dungeon Teleport Scroll 10 Box
14115	1	1	0	1	1	1	1	1	// Refined Infiltrator Box
14116	1	1	0	1	1	1	1	1	// Refined Muramasa Box
14117	1	1	0	1	1	1	1	1	// Refined Excalibur Box
14118	1	1	0	1	1	1	1	1	// Combat Knife Box
14119	1	1	0	1	1	1	1	1	// Counter Dagger Box
14120	1	1	0	1	1	1	1	1	// Refined Kaiser Knuckle Box
14121	1	1	0	1	1	1	1	1	// Refined Mighty Staff Box
14122	1	1	0	1	1	1	1	1	// Light Epsilon Box
14123	1	1	0	1	1	1	1	1	// Refined Ballista Box
14124	1	1	0	1	1	1	1	1	// Sage's Diary Box
14125	1	1	0	1	1	1	1	1	// Asura Box
14126	1	1	0	1	1	1	1	1	// Apple of Archer Box
14127	1	1	0	1	1	1	1	1	// Bunny Band Box
14128	1	1	0	1	1	1	1	1	// Refined Sakkat Box
14129	1	1	0	1	1	1	1	1	// Refined Grand Circlet Box
14130	1	1	0	1	1	1	1	1	// Elven Ears Box
14131	1	1	0	1	1	1	1	1	// Steel Flower Box
14132	1	1	0	1	1	1	1	1	// Critical Ring Box
14133	1	1	0	1	1	1	1	1	// Earring Box
14134	1	1	0	1	1	1	1	1	// Ring Box
14135	1	1	0	1	1	1	1	1	// Necklace Box
14136	1	1	0	1	1	1	1	1	// Glove Box
14137	1	1	0	1	1	1	1	1	// Brooch Box
14138	1	1	0	1	1	1	1	1	// Rosary Box
14139	1	1	0	1	1	1	1	1	// Safety Ring Box
14140	1	1	0	1	1	1	1	1	// Refined Vesper Core 01 Box
14141	1	1	0	1	1	1	1	1	// Refined Vesper Core 02 Box
14142	1	1	0	1	1	1	1	1	// Refined Vesper Core 03 Box
14143	1	1	0	1	1	1	1	1	// Refined Vesper Core 04 Box
14144	1	1	0	1	1	1	1	1	// Vigorgra Box1
14145	1	1	0	1	1	1	1	1	// Vigorgra Box2
14146	1	1	0	1	1	1	1	1	// Vigorgra Box3
14147	1	1	0	1	1	1	1	1	// Vigorgra Box4
14148	1	1	0	1	1	1	1	1	// Vigorgra Box5
14149	1	1	0	1	1	1	1	1	// Vigorgra Box6
14150	1	1	0	1	1	1	1	1	// Vigorgra Box7
14151	1	1	0	1	1	1	1	1	// Vigorgra Box8
14152	1	1	0	1	1	1	1	1	// Start your Journey Pack
14153	1	1	0	1	1	1	1	1	// Siege Mode Pack
14154	1	1	0	1	1	1	1	1	// 1 Hour Survival Pack
14155	1	1	0	1	1	1	1	1	// Weekend Hunting Pack
14156	1	1	0	1	1	1	1	1	// Battle Manual Box
14157	1	1	0	1	1	1	1	1	// Insurance Package
14158	1	1	0	1	1	1	1	1	// Bubble Gum Box
14159	1	1	0	1	1	1	1	1	// Steamed Tongue Box
14160	1	1	0	1	1	1	1	1	// Steamed Scorpion Box
14161	1	1	0	1	1	1	1	1	// Dragon Breath Cocktail Box
14162	1	1	0	1	1	1	1	1	// Hwergelmir's Tonic Box
14163	1	1	0	1	1	1	1	1	// Nine Tail Dish Box
14164	1	1	0	1	1	1	1	1	// Stew Of Immortality Box
14165	1	1	0	1	1	1	1	1	// Kafra Card Box
14166	1	1	0	1	1	1	1	1	// Giant Fly Wing Box
14167	1	1	0	1	1	1	1	1	// Neuralizer Box
14168	1	1	0	1	1	1	1	1	// Convex Mirror Box
14169	1	1	0	1	1	1	1	1	// Blessing 10 Scroll Box
14170	1	1	0	1	1	1	1	1	// Increase AGI 10 scroll Box
14171	1	1	0	1	1	1	1	1	// Aspersio 5 Scroll Box
14172	1	1	0	1	1	1	1	1	// Assumptio 5 Scroll Box
14173	1	1	0	1	1	1	1	1	// Wind Walk 10 Scroll Box
14174	1	1	0	1	1	1	1	1	// Adrenaline 5 Scroll Box
14175	1	1	0	1	1	1	1	1	// Megaphone 10 Box
14176	1	1	0	1	1	1	1	1	// Enriched Elunium Box
14177	1	1	0	1	1	1	1	1	// Enriched Oridecon Box
14178	1	1	0	1	1	1	1	1	// Token of Siegfried Box
14179	1	1	0	1	1	1	1	1	// Giant Fly Wing 50 Box
14180	1	1	0	1	1	1	1	1	// Giant Fly Wing 100 Box
14181	1	1	0	1	1	1	1	1	// Hwergelmir's Tonic 30 Box
14182	1	1	0	1	1	1	1	1	// Hwergelmir's Tonic 50 Box
14183	1	1	0	1	1	1	1	1	// Nine Tail Dish 30 Box
14184	1	1	0	1	1	1	1	1	// Nine Tail Dish 50 Box
14185	1	1	0	1	1	1	1	1	// Increase Agility Scroll 30 Box
14186	1	1	0	1	1	1	1	1	// Increase Agility Scroll 50 Box
14187	1	1	0	1	1	1	1	1	// Stew of Immortality 30 Box
14188	1	1	0	1	1	1	1	1	// Stew of Immortality 50 Box
14189	1	1	0	1	1	1	1	1	// Life Insurrance 30 Box
14190	1	1	0	1	1	1	1	1	// Life Insurrance 50 Box
14191	1	1	0	1	1	1	1	1	// Convex Mirror 5 Box
14192	1	1	0	1	1	1	1	1	// Convex Mirror 30 Box
14193	1	1	0	1	1	1	1	1	// Blessing Scroll 30 Box
14194	1	1	0	1	1	1	1	1	// Lv10 Blessing Scroll Box 50
14195	1	1	0	1	1	1	1	1	// Adrenaline Rush Scroll 30 Box
14196	1	1	0	1	1	1	1	1	// Adrenaline Rush Scroll 50 Box
14197	1	1	0	1	1	1	1	1	// Assumptio Scroll 30 Box
14198	1	1	0	1	1	1	1	1	// Lv5 Assumptio Scroll Box 50
14199	1	1	0	1	1	1	1	1	// Aspersio Scroll 30 Box
14200	1	1	0	1	1	1	1	1	// Aspersio Scroll 50 Box
14201	1	1	0	1	1	1	1	1	// Steamed Scorpion 30 Box
14202	1	1	0	1	1	1	1	1	// Steamed Scorpion 50 Box
14203	1	1	0	1	1	1	1	1	// Wind Walk Scroll 30 Box
14204	1	1	0	1	1	1	1	1	// Wind Walk Scroll 50 Box
14205	1	1	0	1	1	1	1	1	// Dragon Breath Cocktail 30 Box
14206	1	1	0	1	1	1	1	1	// Dragon Breath Cocktail 50 Box
14207	1	1	0	1	1	1	1	1	// Field Manual Box
14208	1	1	0	1	1	1	1	1	// Battle Manual 5 Box
14209	1	1	0	1	1	1	1	1	// Token of Siegfried 5 Box
14210	1	1	0	1	1	1	1	1	// Token of Siegfried 20 Box
14211	1	1	0	1	1	1	1	1	// Kafra Card 30 Box
14212	1	1	0	1	1	1	1	1	// Kafra Card 50 Box
14213	1	1	0	1	1	1	1	1	// Steamed Tongue 30 Box
14214	1	1	0	1	1	1	1	1	// Steamed Tongue 50 Box
14215	1	1	0	1	1	1	1	1	// Bubble Gum Box
14216	1	1	0	1	1	1	1	1	// Bubble Gum 5 Box
14217	1	1	0	1	1	1	1	1	// Megaphone Box
14218	1	1	0	1	1	1	1	1	// Megaphone 5 Box
14219	1	1	0	1	1	1	1	1	// Enriched Elunium 5 Box
14220	1	1	0	1	1	1	1	1	// Enriched Oridecon 5 Box
14221	1	1	0	1	1	1	1	1	// Mystical Amplification Scroll 10 Box
14222	1	1	0	1	1	1	1	1	// Mystical Amplification Scroll 30 Box
14223	1	1	0	1	1	1	1	1	// Mystical Amplification Scroll 50 Box
14224	1	1	0	1	1	1	1	1	// Quagmire Scroll 10 Box
14225	1	1	0	1	1	1	1	1	// Quagmire Scroll 30 Box
14226	1	1	0	1	1	1	1	1	// Quagmire Scroll 50 Box
14227	1	1	0	1	1	1	1	1	// Healing Staff Box
14234	1	0	0	0	1	0	0	1	// Dead Branch 25 Box
14242	1	0	0	0	1	0	0	1	// Beholder Ring Box
14243	1	0	0	0	1	0	0	1	// Hallow Ring Box
14244	1	0	0	0	1	0	0	1	// Clamorous Ring Box
14245	1	0	0	0	1	0	0	1	// Chemical Ring Box
14246	1	0	0	0	1	0	0	1	// Insecticide Ring Box
14247	1	0	0	0	1	0	0	1	// Fisher Ring Box
14248	1	0	0	0	1	0	0	1	// Decussate Ring Box
14249	1	0	0	0	1	0	0	1	// Bloody Ring Box
14250	1	0	0	0	1	0	0	1	// Satanic Ring Box
14251	1	0	0	0	1	0	0	1	// Dragon Ring Box
14252	1	0	0	0	1	0	0	1	// Beholder Ring Box II
14253	1	0	0	0	1	0	0	1	// Hallow Ring Box II
14254	1	0	0	0	1	0	0	1	// Clamorous Ring Box II
14255	1	0	0	0	1	0	0	1	// Chemical Ring Box II
14256	1	0	0	0	1	0	0	1	// Insecticide Ring Box II
14257	1	0	0	0	1	0	0	1	// Fisher Ring Box II
14258	1	0	0	0	1	0	0	1	// Decussate Ring Box II
14259	1	0	0	0	1	0	0	1	// Bloody Ring Box II
14260	1	0	0	0	1	0	0	1	// Satanic Ring Box II
14261	1	0	0	0	1	0	0	1	// Dragon Ring Box II
14289	1	1	0	1	1	1	1	1	// New Clothing Dye Coupon Box
14290	1	1	0	1	1	1	1	1	// Original Clothing Dye Coupon Box
14296	1	0	0	0	1	0	0	1	// Angel Scroll
14297	1	0	0	0	1	0	0	1	// Devil Scroll
14300	1	0	0	0	1	0	0	1	// Mask Of Ifrit Box
14301	1	0	0	0	1	0	0	1	// Ears Of Ifrit Box
14304	1	0	0	0	1	0	0	1	// Scuba Mask Box
14314	1	1	0	1	1	1	1	1	// Phreeoni Scroll Box
14315	1	1	0	1	1	1	1	1	// Ghostring Scroll Box
14316	1	0	0	0	1	0	0	1	// July7 Scroll
14317	1	0	0	0	1	1	1	1	// Bacsojin Scroll
14343	1	1	0	1	1	1	1	1	// Spiked Scarf Box
14344	1	1	0	1	1	1	1	1	// Rainbow Scarf Box
14345	1	0	0	0	1	1	1	1	// Animal Scroll
14349	1	0	0	0	1	0	0	1	// Mental Potion 20 Box
14350	1	0	0	0	1	0	0	1	// Mental Potion 50 Box
14351	1	0	0	0	1	0	0	1	// Tyr's Blessing 20 Box
14352	1	0	0	0	1	0	0	1	// Tyr's Blessing 50 Box
14363	1	0	0	0	1	0	0	1	// Heart Scroll
14375	1	0	0	0	1	1	1	1	// Celestial Axe Box
14376	1	1	0	1	1	1	1	1	// Angeling Potion Box
14377	1	0	0	0	1	1	1	1	// Scream Megaphone Box
14380	1	0	0	0	1	1	1	1	// Anubis Hat Box
14393	1	0	0	0	1	0	0	1	// Universal Amulet Box
14408	1	0	0	0	1	0	0	1	// New Year Scroll
14440	1	0	0	0	1	1	1	1	// Dice Hat Box
14441	1	0	0	0	1	1	1	1	// King Tiger Doll Hat Box
14447	1	0	0	0	1	1	1	1	// Pirate's Pride Box
14448	1	0	0	0	1	1	1	1	// Necromancer's Hood Box
14459	1	1	0	1	1	1	1	1	// Magic Rabbit Hat Box
14460	1	1	0	1	1	1	1	1	// Magic Rabbit Hat Box
14461	1	1	0	1	1	1	1	1	// Ashura Fairy Hat Box
14466	1	1	1	1	1	1	1	1	// Valentine's Emblem Box
14469	1	0	0	0	1	1	1	1	// Ox Tail Egg
14508	1	0	0	0	1	0	0	1	// Zeny Pet Egg Scroll
14521	1	1	0	1	1	1	1	1	// Repair Weapon Scroll
14527	1	1	0	1	1	1	1	1	// Dungeon Teleport Scroll
14533	1	1	0	1	1	1	1	1	// Field Manual 100%
14534	1	1	0	1	1	1	1	1	// Small Life Potion
14535	1	1	0	1	1	1	1	1	// Medium Life Potion
14536	1	1	0	1	1	1	1	1	// Abrasive
14537	1	1	0	1	1	1	1	1	// Regeneration Potion
14538	1	1	0	1	1	1	1	1	// Glass of Illusion
14539	1	1	0	1	1	1	1	1	// Shadow Armor Scroll
14540	1	1	0	1	1	1	1	1	// Holy Armor Scroll
14541	1	1	0	1	1	1	1	1	// Small Defense Potion
14542	1	1	0	1	1	1	1	1	// Big Defense Potion
14543	1	1	0	1	1	1	1	1	// Small Magic Defense Potion
14544	1	1	0	1	1	1	1	1	// Big Magic Defense Potion
14569	1	1	0	1	1	1	1	1	// Knife Goblin Ring
14570	1	1	0	1	1	1	1	1	// Flail Goblin Ring
14571	1	1	0	1	1	1	1	1	// Hammer Goblin Ring
14572	1	1	0	1	1	1	1	1	// Holy Marble
14573	1	1	0	1	1	1	1	1	// Red Burning Stone
14574	1	1	0	1	1	1	1	1	// Vagabond's Skull
14586	1	0	0	0	1	0	0	1	// Jumping Candy
14587	1	1	0	1	1	1	1	1	// Equipment Repair Spell Book
14588	1	1	0	0	1	0	0	1	// Party Blessing 10 Scroll
14589	1	1	0	0	1	0	0	1	// Party Increase Agi 10 Scroll
14590	1	1	0	0	1	0	0	1	// Party Assumptio 5 Scroll
14591	1	1	0	1	1	1	1	1	// WoE Teleport Scroll
14592	1	1	0	1	1	1	1	1	// JOB Battle Manual
14593	1	1	0	1	1	1	1	1	// Mystical Amplification Scroll
14594	1	1	0	1	1	1	1	1	// Quagmire Scroll
14597	1	1	0	1	1	1	1	1	// Phreeoni Scroll
14598	1	1	0	1	1	1	1	1	// Ghostring Scroll
14599	1	1	0	1	1	1	1	1	// Greed Scroll
14600	1	0	0	0	1	0	0	1	// Mental Potion
14601	1	0	0	0	1	0	0	1	// Tyr's Blessing
14602	1	1	0	1	1	1	1	1	// Tao Gunka Scroll
14603	1	1	0	1	1	1	1	1	// Mistress Scroll
14604	1	1	0	1	1	1	1	1	// Orc Hero Scroll
14605	1	1	0	1	1	1	1	1	// Orc Lord Scroll
14606	1	1	0	1	1	1	1	1	// JOB Battle Manual
14608	1	0	0	0	1	0	0	1	// Manchu-Han Imperial Feast
16134	1	1	0	1	1	1	1	1	// Frog King Hat Box
16135	1	0	0	0	1	1	1	1	// Satanic Bone Helm Box
16247	1	1	0	1	1	1	1	1	// Dragon Arhat Mask Box
16248	1	1	0	1	1	1	1	1	// Tiger Arhat Mask Box
16257	1	0	0	0	1	0	0	1	// Buddah Scroll
16258	1	0	0	0	1	1	1	1	// HD Bradium 5 Box
16259	1	0	0	0	1	1	1	1	// HD Carnium 5 Box
16260	1	0	0	0	1	1	1	1	// HD Bradium 10 Box
16261	1	0	0	0	1	1	1	1	// HD Carnium 10 Box
16304	1	1	0	1	1	1	1	1	// Evil Incarnation
16371	1	0	0	0	1	0	0	1	// Tw Aug Scroll
16393	1	0	0	0	1	1	1	1	// HD Oridecon 5 Box
16394	1	0	0	0	1	1	1	1	// HD Oridecon 10 Box
16395	1	0	0	0	1	1	1	1	// HD Elunium 5 Box
16396	1	0	0	0	1	1	1	1	// HD Elunium 10 Box
16461	1	0	0	0	1	0	0	1	// Red Wing Hat Box
16555	1	0	0	0	1	0	0	1	// Pr Reset Stone Box
//===========================================
//= item_db_equip.yml
//===========================================
1173	1	1	1	1	1	1	1	1	// Muramasa
1177	1	1	0	1	1	1	1	1	// Muramash
1183	1	1	0	1	0	1	1	1	// Brave Assaulter's Katzbalger
1184	1	1	0	1	0	1	1	1	// Valorous Assaulter's Katzbalger
1187	1	1	1	1	0	1	1	1	// Glorious Claymore
1190	1	1	1	1	1	1	1	1	// Claymore
1267	1	1	1	1	1	1	1	1	// Infiltrator
1272	1	1	0	1	1	1	1	1	// Scratcher
1279	1	1	0	1	0	1	1	1	// Brave Carnage Katar
1280	1	1	0	1	0	1	1	1	// Valorous Carnage Katar
1281	1	1	1	1	0	1	1	1	// Glorious Bloody Roar
1282	1	1	1	1	0	1	1	1	// Glorious Jamadhar
1283	1	1	1	1	1	1	1	1	// Katar Of Speed
1286	1	1	1	1	1	1	1	1	// Jamadhar
1310	1	1	1	1	0	1	1	1	// Glorious Cleaver
1312	1	1	1	1	1	1	1	1	// Orcish Axe
1313	1	1	1	1	0	1	1	1	// Tourist Axe
1372	1	1	1	1	1	1	1	1	// Light Epsilon
1379	1	1	0	1	0	1	1	1	// Valorous Insane Battle Axe
1380	1	1	0	1	0	1	1	1	// Brave Insane Battle Axe
1381	1	1	1	1	0	1	1	1	// Novice Battle Axe
1382	1	1	1	1	0	1	1	1	// Glorious Two-Handed Axe
1383	1	0	0	0	1	1	1	1	// Celestial Axe
1386	1	1	1	1	1	1	1	1	// Doom Slayer
1388	1	1	1	1	1	1	1	1	// Two-Handed Axe
1419	1	1	1	1	1	1	1	1	// Pole Axe
1423	1	1	0	1	1	1	1	1	// Pole XO
1425	1	1	0	1	0	1	1	1	// Assaulter Spear
1426	1	1	1	1	0	1	1	1	// Glorious Spear
1427	1	1	1	1	1	1	1	1	// Spear Of Excellent
1428	1	1	0	1	1	1	1	1	// Long Horn
1429	1	1	0	1	1	1	1	1	// Hunting Spear
1430	1	1	1	1	1	1	1	1	// Pike
1482	1	1	0	1	0	1	1	1	// Assaulter Lance
1486	1	1	1	1	0	1	1	1	// Glorious Lance
1487	1	1	1	1	1	1	1	1	// Lance
1533	1	1	1	1	1	1	1	1	// Warrior's Balmung
1536	1	1	0	1	1	1	1	1	// Good Morning Star
1542	1	1	0	1	0	1	1	1	// Valorous Battlefield Morning Star
1543	1	1	0	1	0	1	1	1	// Brave Battlefield Morning Star
1545	1	1	1	1	0	1	1	1	// Novice Mace
1546	1	1	1	1	0	1	1	1	// Glorious Morning Star
1547	1	1	1	1	1	1	1	1	// Mace Of Madness
1563	1	1	1	1	1	1	1	1	// Sage's Diary
1566	1	1	0	1	1	1	1	1	// Diary Of Great Basil
1574	1	1	0	1	0	1	1	1	// Brave Battle Strategy Book
1575	1	1	0	1	0	1	1	1	// Valorous Battle Strategy Book
1576	1	1	1	1	0	1	1	1	// Glorious Tablet
1577	1	1	1	1	0	1	1	1	// Glorious Apocalypse
1578	1	1	1	1	1	1	1	1	// Book Of Prayer
1579	1	1	0	1	1	1	1	1	// Book of the Dead
1580	1	1	1	1	1	1	1	1	// Giant Encyclopedia
1623	1	1	1	1	1	1	1	1	// Mighty Staff
1627	1	1	0	1	1	1	1	1	// Staffy
1632	1	1	0	1	0	1	1	1	// Warlock's Magic Wand
1633	1	1	0	1	0	1	1	1	// Warlock's Battle Wand
1634	1	1	0	1	0	1	1	1	// Strong Recovery Wand
1635	1	1	0	1	0	1	1	1	// Speedy Recovery Wand
1638	1	1	1	1	1	1	1	1	// Staff Of Healing
1639	1	1	1	1	0	1	1	1	// Novice Rod
1640	1	1	1	1	0	1	1	1	// Glorious Arc Wand
1641	1	1	1	1	0	1	1	1	// Glorious Cure Wand
1642	1	1	1	1	1	1	1	1	// Staff Of Darkness
1644	1	1	0	1	1	1	1	1	// Staff of Piercing
1645	1	1	0	1	1	1	1	1	// Lich's Bone Wand
1703	1	1	1	1	1	1	1	1	// Bow
1728	1	1	1	1	1	1	1	1	// Ballista
1735	1	1	0	1	1	1	1	1	// Kkakkung
1738	1	1	0	1	0	1	1	1	// Valorous Battle CrossBow
1739	1	1	0	1	0	1	1	1	// Brave Battle CrossBow
1742	1	1	1	1	0	1	1	1	// Novice Composite Bow
1743	1	1	1	1	0	1	1	1	// Glorious Hunter Bow
1744	1	1	1	1	1	1	1	1	// Bow Of Evil
1817	1	1	1	1	1	1	1	1	// Kaiser Knuckle
1823	1	1	0	1	0	1	1	1	// Valorous Battle Fist
1824	1	1	0	1	0	1	1	1	// Brave Battle Fist
1826	1	1	1	1	0	1	1	1	// Glorious Claw
1827	1	1	1	1	0	1	1	1	// Glorious Fist
1828	1	1	1	1	1	1	1	1	// Monk Knuckle
1829	1	1	1	1	1	1	1	1	// Fist
1921	1	1	0	1	1	1	1	1	// Gun Moon Gom
1923	1	1	0	1	0	1	1	1	// Valorous Battlefield Guitar
1924	1	1	0	1	0	1	1	1	// Brave Battlefield Guitar
1927	1	1	1	1	0	1	1	1	// Glorious Guitar
1928	1	1	1	1	1	1	1	1	// Spirited Guitar
1929	1	1	1	1	1	1	1	1	// Guitar
1975	1	1	0	1	1	1	1	1	// Queen Is Whip
1977	1	1	0	1	0	1	1	1	// Valorous Battle Lariat
1978	1	1	0	1	0	1	1	1	// Brave Battle Lariat
1981	1	1	1	1	0	1	1	1	// Glorious Lariat
1982	1	1	1	1	1	1	1	1	// Phenomena Whip
1983	1	1	1	1	1	1	1	1	// Rante Whip
2002	1	1	1	1	0	1	1	1	// Glorious Destruction Staff
2003	1	1	0	1	1	1	1	1	// Staff of Destruction
2127	1	1	0	1	1	1	1	1	// Secular Mission
2132	1	1	1	1	1	1	1	1	// Shell Of Resistance
2358	1	0	0	0	1	0	0	1	// Angel's Dress
2368	1	1	0	1	0	1	1	1	// Golden Armor
2369	1	1	1	1	1	1	1	1	// Freyja Overcoat
2370	1	1	0	1	1	1	1	1	// Used Mage Coat
2376	1	1	0	1	0	1	1	1	// Assaulter Plate
2377	1	1	0	1	0	1	1	1	// Elite Engineer Armor
2378	1	1	0	1	0	1	1	1	// Assassin Robe
2379	1	1	0	1	0	1	1	1	// Warlock's Battle Robe
2380	1	1	0	1	0	1	1	1	// Medic's Robe
2381	1	1	0	1	0	1	1	1	// Elite Archer Suit
2382	1	1	0	1	0	1	1	1	// Elite Shooter Suit
2384	1	1	1	1	1	1	1	1	// Spiritual Tunic
2385	1	1	1	1	1	1	1	1	// Recuperative Armor
2393	1	1	1	1	0	1	1	1	// Novice Adventurer's Suit
2394	1	1	1	1	0	1	1	1	// Glorious Suit
2395	1	1	1	1	0	1	1	1	// Glorious Popularized Suit
2396	1	1	1	1	0	1	1	1	// Glorious Mass-Production Suit
2398	1	1	0	1	1	1	1	1	// Sniping Suit
2427	1	1	0	1	0	1	1	1	// Golden Shoes
2429	1	1	1	1	0	1	1	1	// Iron Boots
2430	1	1	1	1	0	1	1	1	// Iron Boots
2431	1	1	0	1	1	1	1	1	// Valley Shoes
2435	1	1	0	1	0	1	1	1	// Battle Greaves
2436	1	1	0	1	0	1	1	1	// Combat Boots
2437	1	1	0	1	0	1	1	1	// Combat Boots
2438	1	1	0	1	0	1	1	1	// Paw Of Cat
2439	1	1	1	1	1	1	1	1	// Refresh Shoes
2444	1	1	1	1	0	1	1	1	// Glorious Shoes
2445	1	1	1	1	0	1	1	1	// Glorious Popularized Shoes
2446	1	1	1	1	0	1	1	1	// Glorious Mass-Production Shoes
2449	1	1	0	1	1	1	1	1	// Variant Shoes
2534	1	1	0	1	1	1	1	1	// Ruffler
2538	1	1	0	1	0	1	1	1	// Captain's Manteau
2539	1	1	0	1	0	1	1	1	// Commander's Manteau
2540	1	1	0	1	0	1	1	1	// Sheriff's Manteau
2543	1	1	1	1	1	1	1	1	// Sylphid Manteau
2549	1	1	1	1	0	1	1	1	// Glorious Muffler
2551	1	1	0	1	1	1	1	1	// Crest of the Rider
2552	1	1	0	1	1	1	1	1	// Mithril Magic Manteau
2634	1	1	1	1	1	1	1	1	// Wedding Ring
2635	1	1	1	1	1	1	1	1	// Wedding Ring
2642	1	1	1	1	1	1	1	1	// Serin's Gold Ring
2644	1	1	1	1	1	1	1	1	// The Sign
2647	1	1	1	1	1	1	1	1	// Nile Rose
2668	1	1	1	1	0	1	1	1	// Woman Glory
2670	1	1	0	1	1	1	1	1	// Ring of Longing
2673	1	1	1	1	1	1	1	1	// Warrior's Shining Ring
2674	1	1	1	1	1	1	1	1	// Ring of Honor
2676	1	1	1	1	1	1	1	1	// Hunter's Earring
2686	1	1	1	1	1	1	1	1	// Elven Ears
2687	1	1	1	1	1	1	1	1	// Steel Flower
2688	1	1	1	1	1	1	1	1	// Critical Ring
2689	1	1	1	1	1	1	1	1	// Earring
2690	1	1	1	1	1	1	1	1	// Ring
2691	1	1	1	1	1	1	1	1	// Necklace
2692	1	1	1	1	1	1	1	1	// Glove
2693	1	1	1	1	1	1	1	1	// Brooch
2694	1	1	1	1	1	1	1	1	// Rosary
2695	1	1	1	1	1	1	1	1	// Safety Ring
2696	1	1	1	1	1	1	1	1	// Vesper Core 01
2697	1	1	1	1	1	1	1	1	// Vesper Core 02
2698	1	1	1	1	1	1	1	1	// Vesper Core 03
2699	1	1	1	1	1	1	1	1	// Vesper Core 04
2704	1	1	0	1	0	1	1	1	// Golden Accessories
2705	1	1	0	1	0	1	1	1	// Golden Accessories
2708	1	1	0	1	1	1	1	1	// Chinese Handicraft
2713	1	1	1	1	1	1	1	1	// Certificate
2720	1	1	1	1	0	1	1	1	// Medal of Honor
2721	1	1	1	1	0	1	1	1	// Medal of Honor
2722	1	1	1	1	0	1	1	1	// Medal of Honor
2723	1	1	1	1	0	1	1	1	// Medal of Honor
2724	1	1	1	1	0	1	1	1	// Medal of Honor
2725	1	1	1	1	0	1	1	1	// Medal of Honor
2730	1	1	0	1	0	1	1	1	// Seal of Continental Guard
2731	1	1	0	1	0	1	1	1	// Rune Spellstone
2732	1	1	0	1	0	1	1	1	// Death Loop
2733	1	1	0	1	0	1	1	1	// Sheriff Badge
2734	1	1	1	1	0	1	1	1	// Directive
2735	1	1	1	1	0	1	1	1	// Directive
2738	1	1	1	1	1	1	1	1	// Shiny Coin
2739	1	1	1	1	1	1	1	1	// Ordinary Coin
2740	1	1	1	1	1	1	1	1	// Rusty Coin
2741	1	1	1	1	1	1	1	1	// All In One Ring
2751	1	1	0	1	0	1	1	1	// Academy Of Badge
2752	1	1	1	1	1	1	1	1	// Praccsinos
2753	1	1	1	1	1	1	1	1	// Beholder Ring
2754	1	1	1	1	1	1	1	1	// Hallow Ring
2755	1	1	1	1	1	1	1	1	// Clamorous Ring
2756	1	1	1	1	1	1	1	1	// Chemical Ring
2757	1	1	1	1	1	1	1	1	// Insecticide Ring
2758	1	1	1	1	1	1	1	1	// Fischer Ring
2759	1	1	1	1	1	1	1	1	// Decussate Ring
2760	1	1	1	1	1	1	1	1	// Bloody Ring
2761	1	1	1	1	1	1	1	1	// Satanic Ring
2762	1	1	1	1	1	1	1	1	// Dragon Ring
2772	1	1	1	1	0	1	1	1	// Glorious Ring
2773	1	1	1	1	0	1	1	1	// Glorious Mass-Production Ring
2774	1	1	1	1	0	1	1	1	// Glorious Popularized Ring
2777	1	0	0	0	0	0	0	1	// Shaman Ring
2778	1	0	0	0	0	0	0	1	// Shaman Earrings
2779	1	0	0	0	0	0	0	1	// Dark Knight Belt
2780	1	0	0	0	0	0	0	1	// Dark Knight Glove
2781	1	0	0	0	0	0	0	1	// Aumdura's Benefit
2782	1	1	0	1	1	1	1	1	// Ring of the Ancient Wise King
2785	1	1	0	1	1	1	1	1	// Orlean's Gloves
2794	1	1	1	1	1	1	1	1	// Magic Stone Ring
2795	1	1	1	1	0	1	1	1	// Green Apple Ring
2796	1	1	1	1	1	1	1	1	// Rocks
2797	1	1	1	1	1	1	1	1	// Rocks
2798	1	1	1	1	0	1	1	1	// Will Of Exhausted Angel
2819	1	1	1	1	0	1	1	1	// Swordsman Manual
2820	1	1	1	1	0	1	1	1	// Thief Manual
2821	1	1	1	1	0	1	1	1	// Acolyte Manual
2822	1	1	1	1	0	1	1	1	// Archer Manual
2823	1	1	1	1	0	1	1	1	// Merchant Manual
2824	1	1	1	1	0	1	1	1	// Mage Manual
5098	1	0	0	0	1	0	0	1	// Tiger Mask
5100	1	0	0	0	1	0	0	1	// Sales Banner
5103	1	0	0	0	1	0	0	1	// Sunflower Hairpin
5132	0	0	0	1	1	1	1	1	// Angeling Hat
5133	1	0	0	0	1	0	0	1	// Sheep Hat
5154	1	1	0	1	1	1	1	1	// Father's Sunglasses
5155	1	1	0	1	1	1	1	1	// Father's White Moustache
5156	1	1	0	1	1	1	1	1	// Father's Mask
5201	1	1	1	1	0	1	1	1	// Party Hat
5206	1	0	0	0	1	0	0	1	// Romantic White Flower
5209	1	0	0	0	1	0	0	1	// Love Dad Cap
5210	1	0	0	0	1	0	0	1	// Flapping Angel Wing
5215	1	0	0	0	1	0	0	1	// Evolved Angel Wing
5216	1	0	0	0	1	0	0	1	// Evolved Evil Wing
5217	1	0	0	0	1	0	0	1	// Evolved Majestic Goat
5218	1	0	0	0	1	0	0	1	// Evolved Bunny Band
5219	1	0	0	0	1	0	0	1	// Evolved Drooping Cat
5220	1	0	0	0	1	0	0	1	// Evolved Pipe
5221	1	0	0	0	1	0	0	1	// Evolved Pair of Red Ribbon
5222	1	0	0	0	1	0	0	1	// Evolved Blue Fish
5223	1	0	0	0	1	0	0	1	// Evolved Big Golden Bell
5224	1	0	0	0	1	0	0	1	// Evolved Orc Hero Helm
5226	1	0	0	0	1	0	0	1	// Mini Propeller
5227	1	1	0	1	1	1	1	1	// Red Deviruchi Hat
5228	1	1	0	1	1	1	1	1	// Gray Deviruchi Hat
5229	1	1	0	1	1	1	1	1	// Brown Deviruchi Hat
5230	1	1	0	1	1	1	1	1	// Gray Drooping Cat
5231	1	1	0	1	1	1	1	1	// Brown Drooping Cat
5232	1	1	0	1	1	1	1	1	// Pink Drooping Cat
5233	1	1	0	1	1	1	1	1	// Blue Drooping Cat
5234	1	1	0	1	1	1	1	1	// Yellow Drooping Cat
5235	1	1	0	1	1	1	1	1	// Brown Beanie
5236	1	1	0	1	1	1	1	1	// Blue Beanie
5237	1	1	0	1	1	1	1	1	// Pink Beanie
5238	1	1	0	1	1	1	1	1	// Red Mage Hat
5239	1	1	0	1	1	1	1	1	// Gray Mage Hat
5240	1	1	0	1	1	1	1	1	// Brown Mage Hat
5241	1	1	0	1	1	1	1	1	// Blue Mage Hat
5242	1	1	0	1	1	1	1	1	// Yellow Mage Hat
5243	1	0	0	0	1	0	0	1	// Shafka
5256	1	0	0	0	1	0	0	1	// Valkyrie Feather Band
5257	1	0	0	0	1	0	0	1	// Soul Ring
5263	1	0	0	0	1	0	0	1	// Pagdayaw
5265	1	1	1	1	1	1	1	1	// Apple of Archer
5266	1	1	1	1	1	1	1	1	// Bunny Band
5267	1	1	1	1	1	1	1	1	// Sakkat
5268	1	1	1	1	1	1	1	1	// Grand Circlet
5277	1	0	0	0	1	0	0	1	// Yellow Bandana
5278	1	0	0	0	1	0	0	1	// Yellow Ribbon
5283	1	0	0	0	1	0	0	1	// Chick Hat
5284	1	0	0	0	1	0	0	1	// Water Lily Crown
5285	1	0	0	0	1	0	0	1	// Vane Hairpin
5286	1	0	0	0	1	0	0	1	// Pecopeco Hairband
5287	1	0	0	0	1	0	0	1	// Vacation Hat
5288	1	0	0	0	1	0	0	1	// Red Glasses
5289	1	0	0	0	1	0	0	1	// Vanilmirth Hat
5291	1	0	0	0	1	0	0	1	// Kettle Hat
5292	1	0	0	0	1	0	0	1	// Dragon Skull
5293	1	0	0	0	1	0	0	1	// Ramen Hat
5294	1	0	0	0	1	0	0	1	// Whisper Mask
5295	1	1	0	1	0	1	1	1	// Golden Bandana
5300	1	0	0	0	1	0	0	1	// Bullock Helm
5304	1	0	0	0	1	0	0	1	// Cap Of Blindness
5305	1	1	0	1	1	1	1	1	// Pirate Dagger
5306	1	1	1	1	1	1	1	1	// Freya's Crown
5307	1	0	0	0	1	0	0	1	// Carmen Miranda's Hat
5308	1	0	0	0	1	0	0	1	// Brazil National Flag Hat
5310	1	0	0	0	1	0	0	1	// Shining Electric Bulb Hairband
5311	1	0	0	0	1	0	0	1	// Large Hisbiscus
5312	1	0	0	0	1	0	0	1	// Ayothaya King's Hat
5313	1	0	0	0	1	0	0	1	// Diadem
5314	1	0	0	0	1	0	0	1	// Hockey Mask
5315	1	0	0	0	1	0	0	1	// Observer
5318	1	1	0	1	0	1	1	1	// Poring Party Hat
5320	1	1	0	1	1	1	1	1	// Champion Wreath
5322	1	1	0	1	1	1	1	1	// Kerchief
5323	1	1	0	1	1	1	1	1	// Misstrance Crown
5324	1	0	0	0	1	0	0	1	// Little Angel Doll
5333	1	0	0	0	1	1	1	1	// Radio Antenna
5336	1	0	0	0	1	0	0	1	// Guildsman Recruiter Hat
5337	1	0	0	0	1	0	0	1	// Party Recruiter Hat
5338	1	1	1	1	1	1	1	1	// Bf Recruiter Hat
5339	1	1	1	1	1	1	1	1	// Friend Recruiter Hat
5346	1	1	1	1	1	1	1	1	// Gf Recruiter Hat
5352	1	0	0	0	1	0	0	1	// Poporing Cap
5356	0	0	0	0	0	1	1	0	// Festival Pumpkin Hat
5357	1	1	0	1	1	1	1	1	// Wings Of Victory
5358	1	0	0	0	1	0	0	1	// Peco Ears
5359	1	0	0	0	1	0	0	1	// Ship Captain Hat
5360	1	0	0	0	1	0	0	1	// Hyuke's Black Cat Ears
5361	1	0	0	0	1	0	0	1	// Gangster Scarf
5362	1	0	0	0	1	0	0	1	// Ninja Scroll
5367	1	0	0	0	1	0	0	1	// Hyegun Hat
5368	1	1	0	1	1	1	1	1	// White Wing
5369	1	1	0	1	1	1	1	1	// Dark Wing
5371	1	0	0	0	1	0	0	1	// Judge Hat
5372	1	0	0	0	1	0	0	1	// Koneko Hat
5373	1	0	0	0	1	0	0	1	// Dark Randgris Helm
5374	1	0	0	0	1	0	0	1	// Gigantic Majestic Goat
5375	1	0	0	0	1	0	0	1	// Orc Hero Headdress
5376	1	0	0	0	1	0	0	1	// Flying Evil Wing
5377	1	0	0	0	1	0	0	1	// Gentleman's Pipe
5378	1	0	0	0	1	0	0	1	// Bunny Top Hat
5380	1	0	0	0	1	0	0	1	// Fish Head Hat
5381	1	0	0	0	1	0	0	1	// Santa Poring Hat
5382	1	0	0	0	1	0	0	1	// Bell Ribbon
5383	1	0	0	0	1	0	0	1	// Hunter's Cap
5385	1	0	0	0	1	1	1	1	// Yoyo Hat
5386	0	0	0	0	0	1	1	0	// Ayam
5387	1	0	0	0	1	0	0	1	// Neko Mimi Kafra
5388	1	0	0	0	1	0	0	1	// Snake Head Hat
5389	1	0	0	0	1	0	0	1	// Angel Spirit
5391	1	1	1	1	1	1	1	1	// Toast
5394	1	1	1	1	1	1	1	1	// Bubblegum
5395	1	0	0	0	1	0	0	1	// Striped Hat
5397	1	0	0	0	1	0	0	1	// Scuba Gear
5401	1	0	0	0	1	0	0	1	// Black Frame Glasses
5402	1	0	0	0	1	0	0	1	// Mischievous Fairy
5403	1	0	0	0	1	0	0	1	// Fish In Mouth
5404	1	0	0	0	1	0	0	1	// Blue Ribbon
5405	1	0	0	0	1	0	0	1	// Filir Hat
5406	1	1	0	1	0	1	1	1	// Academy Freshman Hat
5407	1	1	0	1	0	1	1	1	// Academy Completion Hat
5420	1	0	0	0	1	0	0	1	// Mask Of Ifrit
5421	1	0	0	0	1	0	0	1	// Ears Of Ifrit
5423	1	0	0	0	1	0	0	1	// I Love China
5428	1	1	0	1	1	1	1	1	// RWC Anniversary Bread Envelope
5429	1	0	0	0	1	0	0	1	// Bogy Cap
5430	1	0	0	0	0	0	0	1	// Torch Cap
5450	1	1	0	1	1	1	1	1	// Solar Hat
5451	1	1	0	1	1	1	1	1	// RWC 2008 Dragon Helm Gold
5452	1	1	0	1	1	1	1	1	// RWC 2008 Dragon Helm Silver
5453	1	1	0	1	1	1	1	1	// RWC 2008 Dragon Helm Copper
5457	1	0	0	0	1	0	0	1	// Moon Rabbit Hat
5460	1	1	1	1	0	1	1	1	// Evolved Dragon Skull Hat
5461	1	1	1	1	0	1	1	1	// Evolved Whisper Mask
5462	1	0	0	0	1	1	1	1	// Spiked Scarf
5463	1	0	0	0	1	1	1	1	// Rainbow Scarf
5464	1	1	1	1	1	1	1	1	// Zaha Doll Hat
5476	1	0	0	0	1	0	0	1	// Grand Peco Hairband
5478	1	0	0	0	1	1	1	1	// Classic Hat
5479	1	0	0	0	0	0	0	1	// Shaman's Hair Decoration
5480	1	0	0	0	0	0	0	1	// Bijofnil Wings
5481	1	0	0	0	0	0	0	1	// Hermode Cap
5482	1	0	0	0	0	0	0	1	// Dark Knight Mask
5483	1	0	0	0	0	0	0	1	// Odin Mask
5490	1	0	0	0	1	1	1	1	// Anubis Helm
5491	1	0	0	0	1	1	1	1	// Bandit Hat
5492	1	1	1	1	1	1	1	1	// Student Cap
5493	1	1	1	1	1	1	1	1	// Ulle's Cap
5494	1	1	1	1	1	1	1	1	// Sphinx Hat
5495	1	0	0	0	1	0	0	1	// Power Of Thor
5496	1	0	0	0	1	1	1	1	// Dice Hat
5497	1	0	0	0	1	1	1	1	// King Tiger Doll Hat
5498	1	0	0	0	1	0	0	1	// Wandering Wolf Helm
5499	1	0	0	0	1	0	0	1	// Pizza Hat
5500	1	0	0	0	1	0	0	1	// Icecream Hat
5501	1	0	0	0	1	1	1	1	// Pirate's Pride
5502	1	0	0	0	1	1	1	1	// Necromancer's Hood
5503	1	0	0	0	1	0	0	1	// Magic Rabit Hat
5504	1	0	0	0	1	0	0	1	// Wedding Weil
5505	1	0	0	0	1	0	0	1	// Asara Fairy Hat
5508	1	0	0	0	1	0	0	1	// Shark Hat
5509	1	0	0	0	1	0	0	1	// Sting hat
5511	1	0	0	0	1	0	0	1	// Samambaia
5519	1	0	0	0	1	0	0	1	// Peacock Feather
5521	1	1	1	1	1	1	1	1	// Angry Mouth
5526	1	0	0	0	1	0	0	1	// Tanigumi Girl Doll
5527	1	0	0	0	1	0	0	1	// Lunatic Hat
5528	1	0	0	0	1	1	1	1	// Frog King Hat
5529	1	0	0	0	1	1	1	1	// Satanic Bone Helm
5530	1	0	0	0	1	0	0	1	// Raven Cap
5532	1	0	0	0	1	0	0	1	// Pirate Dagger
5536	1	1	1	1	1	1	1	1	// Spare Card
5537	1	0	0	0	1	0	0	1	// Kwati Hat
5538	1	0	0	0	1	0	0	1	// Tucan Hat
5539	1	0	0	0	1	0	0	1	// Jaguar Hat
5544	1	1	0	1	0	1	1	1	// Time Keeper Hat
5545	1	0	0	0	1	0	0	1	// Aries Diadem
5546	1	0	0	0	1	0	0	1	// Aries Crown
5547	1	0	0	0	1	0	0	1	// RJC Katusa Flower
5548	1	0	0	0	1	0	0	1	// Scarlet Rose
5549	1	0	0	0	1	0	0	1	// Taurus Diadem
5550	1	0	0	0	1	0	0	1	// Taurus Crown
5554	1	0	0	0	1	0	0	1	// Octopus Hat
5555	1	0	0	0	1	0	0	1	// Leaf Cat Hat
5557	1	0	0	0	1	0	0	1	// Wild Rose Hat
5564	1	0	0	0	1	0	0	1	// Crown of Deceit
5565	1	1	1	1	1	1	1	1	// Dragon Arhat Mask
5566	1	1	1	1	1	1	1	1	// Tiger Arhat Mask
5567	1	0	0	0	1	0	0	1	// Bright Fury
5569	1	0	0	0	1	0	0	1	// Gemini Diadem
5570	1	0	0	0	1	0	0	1	// Gemini Crown
5574	1	0	0	0	1	0	0	1	// Well-Chewed Pencil
5577	1	0	0	0	0	0	0	1	// Dark Knight Mask
5579	1	0	0	0	1	0	0	1	// Wanderer's Sakkat
5581	1	0	0	0	1	0	0	1	// Cancer Diadem
5582	1	0	0	0	1	0	0	1	// Cancer Crown
5583	1	1	1	1	0	1	1	1	// Eden Team Hat
5584	1	0	0	0	1	0	0	1	// Majestic Evil Horns
5587	1	1	1	1	0	1	1	1	// Mosquito Coil
5596	1	1	1	1	1	1	1	1	// 4Leaf Clover In Mouth
5597	1	1	1	1	1	1	1	1	// Bubble Gum In Mouth
5603	1	1	0	1	1	1	1	1	// RTC First Place
5604	1	1	0	1	1	1	1	1	// RTC Second Place
5605	1	1	0	1	1	1	1	1	// RTC Third Place
5654	1	0	0	0	1	0	0	1	// Holy Marching Hat
5667	1	0	0	0	1	0	0	1	// Skull Hood
5668	1	1	1	1	0	1	1	1	// Weird Pumpkin Hat
5738	1	0	0	0	1	0	0	1	// Snowman Hat
5741	1	1	1	1	0	1	1	1	// Eternal Egg Shell
5770	1	0	0	0	1	0	0	1	// Splash Hat
5786	1	1	0	1	1	1	1	1	// Ancient Elven Ear
5796	1	1	1	1	1	1	1	1	// Cheer Scarf
5797	1	1	1	1	1	1	1	1	// Cheer Scarf2
5798	1	1	1	1	1	1	1	1	// Cheer Scarf3
5799	1	1	1	1	1	1	1	1	// Cheer Scarf4
5805	1	1	0	1	1	1	1	1	// Victorious Coronet
5806	1	1	0	1	1	1	1	1	// Poet Natalie's Hat
5812	1	1	1	1	1	1	1	1	// Hat Of Expert
5817	1	1	1	1	1	1	1	1	// Valentine Pledge
5818	1	1	1	1	1	1	1	1	// Carnival Hat
5819	1	1	1	1	1	1	1	1	// Carnival Circlet
5821	1	1	1	1	1	1	1	1	// Gold Tulip Hairpin
5822	1	1	1	1	0	1	1	1	// Love Chick Hat
5856	1	1	1	1	1	1	1	1	// Passion FB Hat
5857	1	1	1	1	1	1	1	1	// Cool FB Hat
5858	1	1	1	1	1	1	1	1	// Victory FB Hat
5859	1	1	1	1	1	1	1	1	// Glory FB Hat
9028	1	0	0	1	0	1	1	1	// Hard Rice Cake
13020	1	1	1	1	1	1	1	1	// Warrior's Balmung
13021	1	1	1	1	1	1	1	1	// Combat Knife
13022	1	1	1	1	1	1	1	1	// Dagger of Counter
13023	1	1	1	1	1	1	1	1	// Ashura
13029	1	1	0	1	1	1	1	1	// Prinsense Knife
13036	1	1	0	1	0	1	1	1	// Brave Assassin's Damascus
13037	1	1	0	1	0	1	1	1	// Valorous Assassin's Damascus
13040	1	1	1	1	0	1	1	1	// Novice Cutter
13041	1	1	1	1	0	1	1	1	// Novice Main Gauche
13042	1	1	1	1	0	1	1	1	// Glorious Gladius
13043	1	1	1	1	1	1	1	1	// Fortune Sword
13044	1	1	1	1	1	1	1	1	// Ice Pick
13045	1	1	1	1	1	1	1	1	// Kamaitachi
13048	1	1	1	1	1	1	1	1	// Damascus
13108	1	1	0	1	0	1	1	1	// Soldier Revolver
13110	1	1	1	1	0	1	1	1	// Glorious Pistol
13112	1	1	1	1	0	1	1	1	// Eden Revlover I
13113	1	1	1	1	0	1	1	1	// Eden Revlover II
13171	1	1	0	1	0	1	1	1	// Soldier Rifle
13172	1	1	0	1	0	1	1	1	// Soldier Gatling Gun
13173	1	1	0	1	0	1	1	1	// Soldier Shotgun
13174	1	1	0	1	0	1	1	1	// Soldier Grenade Launcher
13175	1	1	1	1	1	1	1	1	// Lever Action Rifle
13176	1	1	1	1	0	1	1	1	// Glorious Rifle
13177	1	1	1	1	0	1	1	1	// Glorious Gatling Gun
13178	1	1	1	1	0	1	1	1	// Glorious Shotgun
13179	1	1	1	1	0	1	1	1	// Glorious Grenade Launcher
13305	1	1	0	1	0	1	1	1	// Brave Huuma Front Shuriken
13306	1	1	0	1	0	1	1	1	// Valorous Huuma Front Shuriken
13307	1	1	1	1	0	1	1	1	// Glorious Shuriken
13308	1	1	1	1	1	1	1	1	// Huuma Blaze Shuriken
13309	1	1	1	1	1	1	1	1	// Huuma Giant Wheel Shuriken
13401	1	1	1	1	1	1	1	1	// Excalibur
13406	1	1	0	1	1	1	1	1	// Edger
13410	1	1	0	1	0	1	1	1	// Valorous Gladiator Blade
13411	1	1	1	1	0	1	1	1	// Brave Gladiator Blade
13415	1	1	1	1	0	1	1	1	// Brave Gladiator Blade
13416	1	1	1	1	0	1	1	1	// Glorious Flamberge
13417	1	1	1	1	0	1	1	1	// Glorious Rapier
13418	1	1	1	1	0	1	1	1	// Glorious Holy Avenger
13419	1	1	1	1	1	1	1	1	// Holy saber
13420	1	0	0	0	1	0	0	1	// Honglyun's Sword
13422	1	1	1	1	1	1	1	1	// Flamberge
15001	1	1	1	1	1	1	1	1	// Odin's Blessing
16002	1	1	1	1	1	1	1	1	// Stunner
18500	1	1	1	1	1	1	1	1	// Cheer Scarf6
18501	1	1	1	1	1	1	1	1	// Cheer Scarf8
18502	1	1	1	1	1	1	1	1	// Cheer Scarf10
//===========================================
//= item_db_etc.yml
//===========================================
6000	1	1	0	1	1	1	1	1	// Ashes of Darkness
6005	1	1	0	1	0	1	1	1	// New Year Rice Cake
6006	1	1	1	1	0	1	1	1	// Rice Cake Delivery Box
6007	1	1	1	1	0	1	1	1	// New Year Rice Cake Soup
6009	1	1	1	1	0	1	1	1	// Big Fan Of Magic
6039	1	1	1	1	1	1	1	1	// Piece of Fish
6048	1	1	1	1	1	1	1	1	// Unidentified Mineral
6051	1	1	1	1	0	1	1	1	// Mercenary Contract
6052	1	1	1	1	1	1	1	1	// Ornament Hairpin
6060	1	1	1	1	0	1	1	1	// Month Viewing Ticket
6070	1	1	0	1	1	1	1	1	// Shaman's Document
6071	1	1	0	1	1	1	1	1	// Broken Sword
6072	1	1	0	1	1	1	1	1	// Bijofnil Feather
6073	1	1	0	1	1	1	1	1	// Dragon's Mane
6074	1	1	0	1	1	1	1	1	// Bazett's Order
6075	1	1	1	1	1	1	1	1	// Crystalized Teardrop
6076	1	1	1	1	1	1	1	1	// Portable Toolbox
6077	1	1	1	1	1	1	1	1	// Rough Mineral
6078	1	1	1	1	1	1	1	1	// Stone Fragment
6079	1	1	1	1	1	1	1	1	// Flower Of Alfheim
6080	1	1	1	1	1	1	1	1	// Manuk Coin
6081	1	1	1	1	1	1	1	1	// Splendide Coin
6082	1	1	1	1	1	1	1	1	// Spirit Of Alfheim
6084	1	1	1	1	1	1	1	1	// Bradium Fragments
6085	1	1	1	1	1	1	1	1	// Shaggy Muffler
6093	1	1	1	1	0	1	1	1	// Draco's Egg
6101	1	1	1	1	0	1	1	1	// Attendance Card
6102	1	1	1	1	1	1	1	1	// Report On Splendide
6103	1	1	1	1	1	1	1	1	// Report On Manuk
6116	1	1	1	1	1	1	1	1	// Succubus Pet Exchange Coupon
6117	1	1	1	1	1	1	1	1	// Imp Pet Exchange Coupon
6118	1	1	1	1	1	1	1	1	// Chung E Exchange Coupon
6121	1	1	1	1	1	1	1	1	// Makeover Brush
6122	1	1	1	1	1	1	1	1	// Paint Brush
6124	1	1	1	1	1	1	1	1	// Wolf Flute
6125	1	1	1	1	1	1	1	1	// Spring Time Box
6126	1	1	1	1	1	1	1	1	// Summer Happy Box
6127	1	1	1	1	1	1	1	1	// Purification Stone
6129	1	1	1	1	1	1	1	1	// Nightmare Terror Exchange Coupon
6130	1	1	1	1	1	1	1	1	// Loli Ruri Exchange Coupon
6131	1	1	1	1	1	1	1	1	// Goblin Leader Exchange Coupon
6132	1	1	1	1	1	1	1	1	// Incubus Exchange Coupon
6133	1	1	1	1	1	1	1	1	// Miyabi Ningyo Exchange Coupon
6134	1	1	1	1	1	1	1	1	// Giant Whisper Exchange Coupon
6135	1	1	1	1	1	1	1	1	// Evil Nymph Exchange Coupon
6136	1	1	1	1	1	1	1	1	// Medusa Exchange Coupon
6137	1	1	1	1	1	1	1	1	// Stone Shooter Exchange Coupon
6138	1	1	1	1	1	1	1	1	// Marionette Exchange Coupon
6139	1	1	1	1	1	1	1	1	// Leaf Cat Exchange Coupon
6140	1	1	1	1	1	1	1	1	// Dullahan Exchange Coupon
6141	1	1	1	1	1	1	1	1	// Shinobi Exchange Coupon
6142	1	1	1	1	1	1	1	1	// Golem Exchange Coupon
6143	1	1	1	1	1	1	1	1	// Civil Servant Exchange Coupon
6148	1	1	1	1	0	1	1	1	// Eternity Of Chocolate
6149	1	1	1	1	0	1	1	1	// Simple Chocolate
6150	1	1	1	1	1	1	1	1	// Key of The Mansion
6151	1	1	1	1	0	1	1	1	// Giant Bradium Fragment
6152	1	1	1	1	0	1	1	1	// Glittering Crystal
6153	1	1	1	1	1	1	1	1	// Special Exchange Ticket
6154	1	1	1	1	0	1	1	1	// Broken Horn Pipe
6156	1	1	1	1	0	1	1	1	// Approval Report
6206	1	1	1	1	0	1	1	1	// I Love You
6207	1	1	1	1	0	1	1	1	// Thank You
6208	1	1	1	1	0	1	1	1	// I Respect You
6218	1	1	1	1	1	1	1	1	// Delivery_Daishin_Box
6219	1	1	1	1	1	1	1	1	// Eden Group Mark
6225	1	1	0	1	1	1	1	1	// HD Carnium
6226	1	1	0	1	1	1	1	1	// HD Bradium
6228	1	1	0	1	1	1	1	1	// +9 Weapon Refine Ticket
6229	1	1	0	1	1	1	1	1	// +8 Weapon Refine Ticket
6230	1	1	0	1	1	1	1	1	// +7 Weapon Refine Ticket
6231	1	1	0	1	1	1	1	1	// +6 Weapon Refine Ticket
6232	1	1	0	1	1	1	1	1	// +9 Armor Refine Ticket
6233	1	1	0	1	1	1	1	1	// +8 Armor Refine Ticket
6234	1	1	0	1	1	1	1	1	// +7 Armor Refine Ticket
6235	1	1	0	1	1	1	1	1	// +6 Armor Refine Ticket
6236	1	1	1	1	0	1	1	1	// Blue Card 7
6237	1	1	1	1	1	1	1	1	// Guarana Fruit
6238	1	1	0	1	1	1	1	1	// +11 Weapon Refine Ticket
6239	1	1	0	1	1	1	1	1	// +11 Armor Refine Ticket
6240	1	1	0	1	1	1	1	1	// HD Oridecon
6241	1	1	0	1	1	1	1	1	// HD Elunium
6242	1	0	0	0	1	1	1	1	// Midgard Coin
6266	1	1	1	1	1	1	1	1	// Key Of Deception
6267	1	1	1	1	1	1	1	1	// Key Of Illusion
6268	1	1	1	1	1	1	1	1	// Key Of Gaiety
6269	1	1	1	1	1	1	1	1	// A Master's Blush
6270	1	1	1	1	0	1	1	1	// A Picture Of Minstrel Song
6271	1	1	1	1	0	1	1	1	// Receipt
6272	1	1	1	1	1	1	1	1	// Experiment Seed
6273	1	1	1	1	1	1	1	1	// Seed For Experiment
6274	1	1	1	1	1	1	1	1	// A Piece Of Cloth Of A Saint
6275	1	1	1	1	1	1	1	1	// Shield Of King
6276	1	1	1	1	1	1	1	1	// Clear Reagent
6277	1	1	1	1	1	1	1	1	// Red Reagent
6278	1	1	1	1	1	1	1	1	// Black Reagent
6296	1	1	1	1	0	1	1	1	// Training Notice
6298	1	1	1	1	0	1	1	1	// Pumpkin Head Crushed
6299	1	1	1	1	0	1	1	1	// Worn Cloth Piece
6320	1	1	1	1	1	1	1	1	// Premium Reset Stone
6345	1	1	1	1	0	1	1	1	// Love Ball
6347	1	1	1	1	0	1	1	1	// Bless Word Paper
6348	1	1	1	1	0	1	1	1	// Bless Word Paper
6349	1	1	1	1	0	1	1	1	// Bless Word Paper
6350	1	1	1	1	0	1	1	1	// Bless Word Paper
6351	1	1	1	1	0	1	1	1	// Bless Word Paper
6352	1	1	1	1	0	1	1	1	// Bless Word Paper
6353	1	1	1	1	0	1	1	1	// Bless Word Paper
6354	1	1	1	1	0	1	1	1	// Bless Word Paper
6355	1	1	1	1	0	1	1	1	// Bless Word Paper
6356	1	1	1	1	0	1	1	1	// Bless Word Paper
6357	1	1	1	1	0	1	1	1	// Fortune Cookie Fail
6358	1	1	1	1	1	1	1	1	// Free Cash Coupon
6359	1	1	1	1	1	1	1	1	// Guidebook Exchange
6377	1	1	0	1	0	1	1	1	// Buy Market Permit
6456	1	1	0	1	1	1	1	1	// +5 Weapon Refine Ticket
6457	1	1	0	1	1	1	1	1	// +5 Armor Refine Ticket
7025	1	1	0	1	1	1	1	1	// Lucifer's Lament
7177	1	1	1	1	1	1	1	1	// Crumb of Sobbing Starlight
7178	1	1	1	1	1	1	1	1	// Sobbing Starlight
7275	1	1	1	1	1	1	1	1	// Record of Ancient Language
7276	1	1	1	1	1	1	1	1	// Doodled Message
7304	1	1	1	1	1	1	1	1	// Witch's Spell Scroll
7305	1	1	1	1	1	1	1	1	// Symbol of the Nine Realms
7306	1	1	1	1	1	1	1	1	// Piece of Spirit
7307	1	1	1	1	1	1	1	1	// Spiritual Whispers
7308	1	1	1	1	1	1	1	1	// Witch's Tonic
7309	1	1	1	1	1	1	1	1	// Witch's Tonic
7314	1	1	1	1	1	1	1	1	// The Sign
7332	1	1	1	1	1	1	1	1	// Complete Tablet
7333	1	1	1	1	1	1	1	1	// Prontera Tablet
7334	1	1	1	1	1	1	1	1	// Payon Tablet
7335	1	1	1	1	1	1	1	1	// Morocc Tablet
7336	1	1	1	1	1	1	1	1	// Geffen Tablet
7339	1	1	1	1	1	1	1	1	// Commemorative Travel Card
7341	1	1	1	1	1	1	1	1	// Old Pendant
7342	1	1	1	1	1	1	1	1	// File Folder
7343	1	1	1	1	1	1	1	1	// Sealed File Folder
7344	1	1	1	1	1	1	1	1	// Shinokas Case File
7346	1	1	1	1	1	1	1	1	// Ymir's Heart Piece
7349	1	1	1	1	1	1	1	1	// Archive Permit
7351	1	1	1	1	1	1	1	1	// Friend's Diary
7416	1	1	0	1	1	1	1	1	// Letter of Recommendation
7417	1	1	0	1	1	1	1	1	// Written Request(A)
7418	1	1	0	1	1	1	1	1	// Written Request(B)
7420	0	1	1	1	0	1	1	1	// Skull
7421	1	1	1	1	0	1	1	1	// Red Key
7422	1	1	1	1	0	1	1	1	// Yellow Key
7423	1	1	1	1	0	1	1	1	// Blue Key
7424	1	1	1	1	0	1	1	1	// Green Key
7425	1	1	1	1	0	1	1	1	// Black Key
7426	1	1	1	1	0	1	1	1	// Red Charm Stone
7427	1	1	1	1	0	1	1	1	// Yellow Charm Stone
7428	1	1	1	1	0	1	1	1	// Blue Charm Stone
7429	1	1	1	1	0	1	1	1	// Green Charm Stone
7430	1	1	1	1	0	1	1	1	// Black Charm Stone
7431	1	1	1	1	0	1	1	1	// Pile of Books
7432	1	1	1	1	1	1	1	1	// Leather Pouch
7484	1	1	1	1	1	1	1	1	// Symbol of a Brave Warrior
7485	1	1	1	1	1	1	1	1	// Cloud General
7486	1	1	1	1	1	1	1	1	// Wind General
7487	1	1	1	1	1	1	1	1	// Culinary Wine
7488	1	1	1	1	1	1	1	1	// Delivery Package
7489	1	1	1	1	1	1	1	1	// Cottage Key
7490	1	1	1	1	1	1	1	1	// Letter to Elly
7491	1	1	1	1	1	1	1	1	// Steel Box
7492	1	1	1	1	1	1	1	1	// Yellow Keycard
7493	1	1	1	1	1	1	1	1	// Golden Key
7494	1	1	1	1	1	1	1	1	// Luxurious Button
7495	1	1	1	1	1	1	1	1	// Blue Keycard
7496	1	1	1	1	1	1	1	1	// Red Keycard
7497	1	1	1	1	1	1	1	1	// Metal Fragment
7498	1	1	1	1	1	1	1	1	// Rosimier Mansion Keys
7499	1	1	1	1	1	1	1	1	// Family Portrait
7500	1	1	1	1	1	1	1	1	// Woman's Portrait
7501	1	1	1	1	1	1	1	1	// K.H's Letter
7502	1	1	1	1	1	1	1	1	// James's Note
7503	1	1	1	1	1	1	1	1	// Man's Portrait
7504	1	1	1	1	1	1	1	1	// Power Device
7505	1	1	1	1	1	1	1	1	// Toy Key
7506	1	1	1	1	0	1	1	1	// Black Keycard
7508	1	1	1	1	1	1	1	1	// Allysia's Ring
7509	1	1	0	1	1	1	1	1	// Luxurious Keycard
7515	1	1	1	1	0	1	1	1	// Prize Medal
7516	1	1	1	1	0	1	1	1	// Green Keycard
7518	1	1	1	1	0	1	1	1	// Women's Medal
7525	1	1	1	1	0	1	1	1	// Summer Festival Ticket
7527	0	1	1	1	1	1	1	1	// Book About True Life
7530	1	1	1	1	1	1	1	1	// Travel Brochure [Amatsu]
7531	1	1	1	1	1	1	1	1	// Travel Brochure [Kunlun]
7532	1	1	1	1	1	1	1	1	// Travel Brochure [Luoyang]
7533	1	1	1	1	1	1	1	1	// Travel Brochure [Ayothaya]
7534	1	1	1	1	1	1	1	1	// Amatsu Completed Photo Album
7535	1	1	1	1	1	1	1	1	// Kunlun Completed Photo Album
7536	1	1	1	1	1	1	1	1	// Luoyang Completed Photo Album
7537	1	1	1	1	1	1	1	1	// Ayothaya Completed Photo Album
7538	1	1	1	1	0	1	1	1	// Sand for Work
7539	1	1	1	1	0	1	1	1	// Poring Coin
7547	1	1	1	1	0	1	1	1	// Soccer Ball
7548	1	1	1	1	0	1	1	1	// Soccer Shoes
7549	1	1	1	1	0	1	1	1	// Brazilian Flag
7550	1	1	1	1	0	1	1	1	// 6.13 Ticket
7551	1	1	1	1	0	1	1	1	// 6.18 Ticket
7552	1	1	1	1	0	1	1	1	// 6.22 Ticket
7553	1	1	1	1	0	1	1	1	// Lotus Flower
7554	1	1	1	1	0	1	1	1	// Striped Candle
7555	1	1	1	1	0	1	1	1	// Green Incense
7556	1	1	0	1	1	1	1	1	// Longing Heart
7557	1	1	0	1	1	1	1	1	// Invitation Letter
7558	1	1	0	1	1	1	1	1	// Invitation Ticket
7559	1	1	0	1	1	1	1	1	// Key to the Secret Garden
7569	1	1	0	1	1	1	1	1	// Wind Hammer
7572	1	1	0	1	1	1	1	1	// Ashy Necklace
7573	1	1	0	1	1	1	1	1	// Sparkling Necklace
7575	1	1	1	1	1	1	1	1	// Red Jewel
7576	1	1	1	1	1	1	1	1	// Blue Jewel
7577	1	1	1	1	0	1	1	1	// Yellow Jewel
7579	1	1	1	1	0	1	1	1	// Silk Handkerchief of Zhi Nu
7580	1	1	1	1	0	1	1	1	// Black Marble
7583	1	1	1	1	0	1	1	1	// Evil Mind
7584	1	1	1	1	0	1	1	1	// Guard's First Proof
7585	1	1	1	1	0	1	1	1	// Guard's Second Proof
7586	1	1	1	1	0	1	1	1	// Guard's Third Proof
7587	1	1	1	1	0	1	1	1	// Guard's Fourth Proof
7588	1	1	1	1	0	1	1	1	// IPOD Coupon
7603	1	1	1	1	0	1	1	1	// RO Party Invitation Ticket
7614	1	1	1	1	0	1	1	1	// Wrapping Paper
7618	1	1	1	1	0	1	1	1	// Monster Crystal
7619	1	1	0	1	1	1	1	1	// Enriched Elunium
7620	1	1	0	1	1	1	1	1	// Enriched Oridecon
7621	1	1	0	1	1	1	1	1	// Token Of Siegfried
7622	1	0	0	0	1	0	0	1	// Hairstyle Coupon
7623	1	1	1	1	1	1	1	1	// Ticket Of Identification
7624	1	1	1	1	0	1	1	1	// Spring Stanza23
7629	1	1	1	1	0	1	1	1	// Pink Gift Box
7759	1	1	1	1	1	1	1	1	// Geologist's Report
7766	1	1	0	1	1	1	1	1	// Bok Choy
7767	1	1	0	1	1	1	1	1	// Green Maiden's Cake
7773	1	1	1	1	0	1	1	1	// Wat Badge
7776	1	1	0	1	1	1	1	1	// Gym Pass
7784	1	1	0	1	1	1	1	1	// Free Coupon 1
7785	1	1	0	1	1	1	1	1	// Free Coupon 2
7786	1	1	0	1	1	1	1	1	// Free Coupon 3
7787	1	1	0	1	1	1	1	1	// Free Coupon 4
7788	1	1	0	1	1	1	1	1	// Free Coupon 5
7789	1	1	0	1	1	1	1	1	// Free Coupon 6
7790	1	1	0	1	1	1	1	1	// Free Coupon 7
7791	1	1	0	1	1	1	1	1	// Free Coupon 8
7793	1	1	0	1	1	1	1	1	// Golden Apple
7794	1	1	0	1	1	1	1	1	// The Crow of Destiny
7800	1	1	0	1	1	1	1	1	// Golden Charm Apple
7801	1	1	1	1	0	1	1	1	// Girl's Letter
7802	1	1	1	1	0	1	1	1	// Signature Notebook
7820	1	1	1	1	1	1	1	1	// Piece of Morocc Skin
7821	1	1	0	1	1	1	1	1	// Green Apple
7822	1	1	0	1	1	1	1	1	// Whole Barbecue
7823	1	1	0	1	1	1	1	1	// Meat Veg Skewer
7824	1	1	0	1	1	1	1	1	// Spirit Liquor
7826	1	1	1	1	1	1	1	1	// Continental Guard Paper
7828	1	1	0	1	0	1	1	1	// Bravery Badge
7829	1	1	0	1	0	1	1	1	// Valor Badge
7839	1	1	1	1	0	1	1	1	// Crystal Key
7840	1	1	1	1	1	1	1	1	// Valkyrie's Gift
7841	1	1	1	1	0	1	1	1	// Stained Piece Of Paper
7842	1	1	1	1	0	1	1	1	// Torn Piece Of Paper
7843	1	1	1	1	0	1	1	1	// Old Piece Of Paper
7844	1	1	1	1	0	1	1	1	// Burnt Pieces Of Paper
7863	1	1	0	1	0	1	1	1	// Special Gold
7865	1	1	1	1	0	1	1	1	// Gold Pouch
7866	1	1	1	1	0	1	1	1	// Certificate
7875	1	1	0	1	0	1	1	1	// Pirate Treasure
7876	1	1	1	1	0	1	1	1	// Golden Key
7877	1	1	1	1	0	1	1	1	// Red Ring
7878	1	1	1	1	0	1	1	1	// Lusalka's Hair
7879	1	1	1	1	0	1	1	1	// Golden Thread
7880	1	1	1	1	0	1	1	1	// Baba Yaga's Silver Spoon
7881	1	1	1	1	0	1	1	1	// Mystery Magic Book
7882	1	1	1	1	0	1	1	1	// Sharp Branch
7883	1	1	1	1	0	1	1	1	// Wooden Flute
7884	1	1	0	1	1	1	1	1	// Jade Plate
7885	1	1	0	1	1	1	1	1	// Sacred Arrow
7895	1	1	1	1	0	1	1	1	// Rama5 Book
7896	1	1	1	1	0	1	1	1	// Loykrathong Book
7897	1	1	1	1	0	1	1	1	// Constitution Book
7898	1	1	1	1	0	1	1	1	// VV Strong Balmung
7899	1	1	1	1	0	1	1	1	// Dagger Of Psychic
7900	1	1	1	1	1	1	1	1	// Jonathan Family Ring
7901	1	1	1	1	1	1	1	1	// Jillberriel Family Ring
7902	1	1	1	1	1	1	1	1	// Jessur Family Ring
7903	1	1	1	1	1	1	1	1	// Jenoss Family Ring
7904	1	1	1	1	1	1	1	1	// Piano Key
7906	1	1	1	1	1	1	1	1	// Poppy Wreath
7907	1	1	1	1	0	1	1	1	// Bobbin Of Goddess
7912	1	1	1	1	1	1	1	1	// Portable Snowman Machine
7913	1	1	1	1	1	1	1	1	// Battle Test Certificate
7914	1	1	1	1	1	1	1	1	// Ancient Language Document
7923	1	1	1	1	0	1	1	1	// Krathong
7928	1	1	1	1	1	1	1	1	// Brazil National Flag
7929	1	1	1	1	1	1	1	1	// Gold Coin
7930	1	1	1	1	1	1	1	1	// Devil's Cattle Ring
7944	1	0	0	0	1	0	0	1	// Sealed Box
7945	1	0	0	0	1	0	0	1	// Universal Amulet
7949	1	1	1	1	0	1	1	1	// Woven Wool
7950	1	1	1	1	0	1	1	1	// Ayothaya Fest Ticket
7951	1	1	1	1	1	1	1	1	// Golden Tulip Flower
7952	1	1	1	1	1	1	1	1	// Gift Of Lomi Ross
7953	1	1	1	1	1	1	1	1	// Gift Of Juliet
7954	1	1	1	1	0	1	1	1	// Summer Festival Ticket
7959	1	0	0	0	0	0	0	1	// Ancient Gold Coin
7960	1	0	0	0	0	0	0	1	// Ancient Silver Coin
7961	1	1	1	1	0	1	1	1	// Weapon Exchange
7962	1	1	1	1	0	1	1	1	// Treasure Map1
7963	1	1	1	1	0	1	1	1	// Treasure Map2
7964	1	1	1	1	0	1	1	1	// Treasure Map3
7965	1	1	1	1	0	1	1	1	// Treasure Map4
7966	1	1	1	1	0	1	1	1	// Weird Parchment1
7967	1	1	1	1	0	1	1	1	// Weird Parchment2
7968	1	1	1	1	0	1	1	1	// Weird Parchment3
7969	1	1	1	1	0	1	1	1	// Weird Parchment4
7973	1	1	1	1	0	1	1	1	// Immortality Egg
7974	1	1	1	1	0	1	1	1	// Illusion Piece
7978	1	1	1	1	0	1	1	1	// Spring Stanza1
7979	1	1	1	1	0	1	1	1	// Spring Stanza2
7980	1	1	1	1	0	1	1	1	// Spring Stanza3
7981	1	1	1	1	0	1	1	1	// Spring Stanza4
7982	1	1	1	1	0	1	1	1	// Spring Stanza5
7983	1	1	1	1	0	1	1	1	// Spring Stanza6
7984	1	1	1	1	0	1	1	1	// Spring Stanza7
7985	1	1	1	1	0	1	1	1	// Spring Stanza8
7986	1	1	1	1	0	1	1	1	// Spring Stanza9
7987	1	1	1	1	0	1	1	1	// Spring Stanza10
7988	1	1	1	1	0	1	1	1	// Spring Stanza11
7989	1	1	1	1	0	1	1	1	// Spring Stanza12
7990	1	1	1	1	0	1	1	1	// Spring Stanza13
7991	1	1	1	1	0	1	1	1	// Spring Stanza14
7992	1	1	1	1	0	1	1	1	// Spring Stanza15
7993	1	1	1	1	0	1	1	1	// Spring Stanza16
7994	1	1	1	1	0	1	1	1	// Spring Stanza17
7995	1	1	1	1	0	1	1	1	// Spring Stanza18
7996	1	1	1	1	0	1	1	1	// Spring Stanza19
7997	1	1	1	1	0	1	1	1	// Spring Stanza20
7998	1	1	1	1	0	1	1	1	// Spring Stanza21
7999	1	1	1	1	0	1	1	1	// Spring Stanza22
// Leave line below empty
